LSD/aula1/parte2/simulation/qsim/VHDLDemo.msim.vcd
$comment
	File created using the following command:
		vcd file VHDLDemo.msim.vcd -direction
$end
$date
	Thu Feb 23 10:53:10 2023
$end
$version
	ModelSim Version 2020.1
$end
$timescale
	1ps
$end

$scope module and2gate_vhd_vec_tst $end
$var wire 1 ! inPort0 $end
$var wire 1 " inPort1 $end
$var wire 1 # outPort $end

$scope module i1 $end
$var wire 1 $ gnd $end
$var wire 1 % vcc $end
$var wire 1 & unknown $end
$var wire 1 ' devoe $end
$var wire 1 ( devclrn $end
$var wire 1 ) devpor $end
$var wire 1 * ww_devoe $end
$var wire 1 + ww_devclrn $end
$var wire 1 , ww_devpor $end
$var wire 1 - ww_inPort0 $end
$var wire 1 . ww_inPort1 $end
$var wire 1 / ww_outPort $end
$var wire 1 0 \outPort~output_o\ $end
$var wire 1 1 \inPort0~input_o\ $end
$var wire 1 2 \inPort1~input_o\ $end
$var wire 1 3 \outPort~0_combout\ $end
$upscope $end
$upscope $end
$enddefinitions $end
#0
$dumpvars
0!
1"
0#
0$
1%
x&
1'
1(
1)
1*
1+
1,
0-
1.
0/
00
01
12
03
$end
#5000
1!
0"
1-
0.
02
11
#10000
0!
1"
0-
1.
12
01
#15000
1!
1-
11
13
10
1/
1#
#20000
0"
0.
02
03
00
0/
0#
#30000
0!
0-
01
#35000
1!
1"
1-
1.
12
11
13
10
1/
1#
#40000
0"
0.
02
03
00
0/
0#
#50000
1"
0!
1.
0-
01
12
#60000
1!
1-
11
13
10
1/
1#
#70000
0!
0"
0-
0.
02
01
03
00
0/
0#
#85000
1!
1"
1-
1.
12
11
13
10
1/
1#
#90000
0!
0-
01
03
00
0/
0#
#100000
1!
1-
11
13
10
1/
1#
#110000
0!
0-
01
03
00
0/
0#
#115000
1!
1-
11
13
10
1/
1#
#120000
0"
0.
02
03
00
0/
0#
#130000
1"
1.
12
13
10
1/
1#
#135000
0"
0.
02
03
00
0/
0#
#140000
1"
1.
12
13
10
1/
1#
#145000
0!
0-
01
03
00
0/
0#
#150000
0"
0.
02
#155000
1"
1!
1.
1-
11
12
13
10
1/
1#
#160000
0"
0!
0.
0-
01
02
03
00
0/
0#
#165000
1"
1!
1.
1-
11
12
13
10
1/
1#
#170000
0"
0.
02
03
00
0/
0#
#180000
0!
0-
01
#185000
1"
1.
12
#190000
1!
1-
11
13
10
1/
1#
#195000
0!
0"
0-
0.
02
01
03
00
0/
0#
#200000
1!
1"
1-
1.
12
11
13
10
1/
1#
#205000
0!
0-
01
03
00
0/
0#
#210000
1!
0"
1-
0.
02
11
#235000
1"
1.
12
13
10
1/
1#
#245000
0!
0-
01
03
00
0/
0#
#250000
1!
0"
1-
0.
02
11
#260000
0!
1"
0-
1.
12
01
#265000
1!
0"
1-
0.
02
11
#270000
1"
1.
12
13
10
1/
1#
#275000
0"
0.
02
03
00
0/
0#
#280000
1"
1.
12
13
10
1/
1#
#285000
0!
0-
01
03
00
0/
0#
#290000
0"
0.
02
#295000
1!
1-
11
#305000
1"
1.
12
13
10
1/
1#
#310000
0"
0!
0.
0-
01
02
03
00
0/
0#
#315000
1"
1.
12
#320000
1!
1-
11
13
10
1/
1#
#325000
0!
0"
0-
0.
02
01
03
00
0/
0#
#335000
1"
1.
12
#345000
0"
1!
0.
1-
11
02
#350000
1"
0!
1.
0-
01
12
#355000
0"
1!
0.
1-
11
02
#360000
1"
1.
12
13
10
1/
1#
#365000
0!
0-
01
03
00
0/
0#
#370000
1!
1-
11
13
10
1/
1#
#375000
0!
0-
01
03
00
0/
0#
#385000
0"
0.
02
#390000
1!
1-
11
#395000
0!
1"
0-
1.
12
01
#410000
1!
1-
11
13
10
1/
1#
#415000
0!
0-
01
03
00
0/
0#
#425000
0"
0.
02
#430000
1"
1!
1.
1-
11
12
13
10
1/
1#
#445000
0"
0!
0.
0-
01
02
03
00
0/
0#
#450000
1!
1-
11
#460000
0!
0-
01
#465000
1"
1.
12
#470000
0"
0.
02
#475000
1"
1!
1.
1-
11
12
13
10
1/
1#
#480000
0"
0.
02
03
00
0/
0#
#485000
1"
0!
1.
0-
01
12
#490000
0"
1!
0.
1-
11
02
#495000
0!
0-
01
#500000
1"
1.
12
#505000
1!
1-
11
13
10
1/
1#
#520000
0!
0"
0-
0.
02
01
03
00
0/
0#
#525000
1!
1"
1-
1.
12
11
13
10
1/
1#
#535000
0!
0"
0-
0.
02
01
03
00
0/
0#
#540000
1!
1-
11
#545000
0!
1"
0-
1.
12
01
#565000
1!
0"
1-
0.
02
11
#570000
0!
0-
01
#575000
1!
1"
1-
1.
12
11
13
10
1/
1#
#580000
0!
0-
01
03
00
0/
0#
#585000
1!
0"
1-
0.
02
11
#590000
1"
1.
12
13
10
1/
1#
#595000
0!
0-
01
03
00
0/
0#
#600000
0"
0.
02
#605000
1"
1!
1.
1-
11
12
13
10
1/
1#
#610000
0"
0!
0.
0-
01
02
03
00
0/
0#
#615000
1"
1.
12
#620000
0"
1!
0.
1-
11
02
#630000
1"
0!
1.
0-
01
12
#635000
0"
0.
02
#650000
1"
1.
12
#655000
0"
1!
0.
1-
11
02
#675000
0!
0-
01
#690000
1!
1"
1-
1.
12
11
13
10
1/
1#
#695000
0!
0-
01
03
00
0/
0#
#700000
1!
1-
11
13
10
1/
1#
#705000
0"
0.
02
03
00
0/
0#
#710000
1"
0!
1.
0-
01
12
#715000
1!
1-
11
13
10
1/
1#
#720000
0!
0-
01
03
00
0/
0#
#725000
1!
0"
1-
0.
02
11
#730000
1"
1.
12
13
10
1/
1#
#735000
0"
0.
02
03
00
0/
0#
#740000
1"
1.
12
13
10
1/
1#
#745000
0!
0-
01
03
00
0/
0#
#750000
1!
0"
1-
0.
02
11
#765000
1"
1.
12
13
10
1/
1#
#770000
0"
0!
0.
0-
01
02
03
00
0/
0#
#775000
1"
1!
1.
1-
11
12
13
10
1/
1#
#780000
0"
0!
0.
0-
01
02
03
00
0/
0#
#785000
1!
1-
11
#800000
1"
1.
12
13
10
1/
1#
#805000
0"
0.
02
03
00
0/
0#
#810000
0!
0-
01
#815000
1!
1-
11
#820000
0!
0-
01
#830000
1"
1.
12
#835000
0"
1!
0.
1-
11
02
#840000
1"
1.
12
13
10
1/
1#
#845000
0!
0-
01
03
00
0/
0#
#850000
0"
0.
02
#855000
1"
1.
12
#860000
0"
1!
0.
1-
11
02
#870000
0!
0-
01
#875000
1!
1-
11
#880000
0!
0-
01
#885000
1!
1"
1-
1.
12
11
13
10
1/
1#
#895000
0!
0-
01
03
00
0/
0#
#900000
1!
1-
11
13
10
1/
1#
#905000
0!
0"
0-
0.
02
01
03
00
0/
0#
#910000
1!
1-
11
#915000
1"
1.
12
13
10
1/
1#
#925000
0"
0.
02
03
00
0/
0#
#930000
1"
1.
12
13
10
1/
1#
#935000
0"
0!
0.
0-
01
02
03
00
0/
0#
#940000
1"
1!
1.
1-
11
12
13
10
1/
1#
#950000
0"
0!
0.
0-
01
02
03
00
0/
0#
#960000
1"
1!
1.
1-
11
12
13
10
1/
1#
#965000
0"
0.
02
03
00
0/
0#
#975000
1"
0!
1.
0-
01
12
#985000
0"
1!
0.
1-
11
02
#990000
1"
0!
1.
0-
01
12
