isd/aula 5/test4/simulation/qsim/test4.msim.vcd
$comment
	File created using the following command:
		vcd file test4.msim.vcd -direction
$end
$date
	Wed Nov 02 20:31:27 2022
$end
$version
	ModelSim Version 2020.1
$end
$timescale
	1ps
$end

$scope module test4_vlg_vec_tst $end
$var reg 1 ! x $end
$var reg 1 " y $end
$var wire 1 # c $end

$scope module i1 $end
$var wire 1 $ gnd $end
$var wire 1 % vcc $end
$var wire 1 & unknown $end
$var tri1 1 ' devclrn $end
$var tri1 1 ( devpor $end
$var tri1 1 ) devoe $end
$var wire 1 * c~output_o $end
$var wire 1 + x~input_o $end
$var wire 1 , y~input_o $end
$var wire 1 - and2~combout $end
$upscope $end
$upscope $end
$enddefinitions $end
#0
$dumpvars
0!
0"
1#
0$
1%
x&
1'
1(
1)
1*
0+
0,
0-
$end
#25000
1!
1+
#50000
1"
0!
1,
0+
#75000
1!
1+
1-
0*
0#
#100000
0"
0!
0,
0+
0-
1*
1#
#125000
1!
1+
#150000
1"
0!
1,
0+
#175000
1!
1+
1-
0*
0#
#200000
0"
0!
0,
0+
0-
1*
1#
#225000
1!
1+
#250000
1"
0!
1,
0+
#275000
1!
1+
1-
0*
0#
#300000
0"
0!
0,
0+
0-
1*
1#
#325000
1!
1+
#350000
1"
0!
1,
0+
#375000
1!
1+
1-
0*
0#
#400000
0"
0!
0,
0+
0-
1*
1#
#425000
1!
1+
#450000
1"
0!
1,
0+
#475000
1!
1+
1-
0*
0#
#500000
0"
0!
0,
0+
0-
1*
1#
#525000
1!
1+
#550000
1"
0!
1,
0+
#575000
1!
1+
1-
0*
0#
#600000
0"
0!
0,
0+
0-
1*
1#
#625000
1!
1+
#650000
1"
0!
1,
0+
#675000
1!
1+
1-
0*
0#
#700000
0"
0!
0,
0+
0-
1*
1#
#725000
1!
1+
#750000
1"
0!
1,
0+
#775000
1!
1+
1-
0*
0#
#800000
0"
0!
0,
0+
0-
1*
1#
#825000
1!
1+
#850000
1"
0!
1,
0+
#875000
1!
1+
1-
0*
0#
#900000
0"
0!
0,
0+
0-
1*
1#
#925000
1!
1+
#950000
1"
0!
1,
0+
#975000
1!
1+
1-
0*
0#
