LSD/P/aula3/adder/simulation/qsim/AdderDemo.msim.vcd
$comment
	File created using the following command:
		vcd file AdderDemo.msim.vcd -direction
$end
$date
	Thu Mar 09 10:41:22 2023
$end
$version
	ModelSim Version 2020.1
$end
$timescale
	1ps
$end

$scope module adder4_vhd_vec_tst $end
$var wire 1 ! a [3] $end
$var wire 1 " a [2] $end
$var wire 1 # a [1] $end
$var wire 1 $ a [0] $end
$var wire 1 % b [3] $end
$var wire 1 & b [2] $end
$var wire 1 ' b [1] $end
$var wire 1 ( b [0] $end
$var wire 1 ) cin $end
$var wire 1 * cout $end
$var wire 1 + s [3] $end
$var wire 1 , s [2] $end
$var wire 1 - s [1] $end
$var wire 1 . s [0] $end

$scope module i1 $end
$var wire 1 / gnd $end
$var wire 1 0 vcc $end
$var wire 1 1 unknown $end
$var wire 1 2 devoe $end
$var wire 1 3 devclrn $end
$var wire 1 4 devpor $end
$var wire 1 5 ww_devoe $end
$var wire 1 6 ww_devclrn $end
$var wire 1 7 ww_devpor $end
$var wire 1 8 ww_a [3] $end
$var wire 1 9 ww_a [2] $end
$var wire 1 : ww_a [1] $end
$var wire 1 ; ww_a [0] $end
$var wire 1 < ww_b [3] $end
$var wire 1 = ww_b [2] $end
$var wire 1 > ww_b [1] $end
$var wire 1 ? ww_b [0] $end
$var wire 1 @ ww_s [3] $end
$var wire 1 A ww_s [2] $end
$var wire 1 B ww_s [1] $end
$var wire 1 C ww_s [0] $end
$var wire 1 D ww_cin $end
$var wire 1 E ww_cout $end
$var wire 1 F \s[0]~output_o\ $end
$var wire 1 G \s[1]~output_o\ $end
$var wire 1 H \s[2]~output_o\ $end
$var wire 1 I \s[3]~output_o\ $end
$var wire 1 J \cout~output_o\ $end
$var wire 1 K \b[0]~input_o\ $end
$var wire 1 L \a[0]~input_o\ $end
$var wire 1 M \cin~input_o\ $end
$var wire 1 N \bit0|s~0_combout\ $end
$var wire 1 O \b[1]~input_o\ $end
$var wire 1 P \a[1]~input_o\ $end
$var wire 1 Q \bit0|cout~0_combout\ $end
$var wire 1 R \bit1|s~combout\ $end
$var wire 1 S \b[2]~input_o\ $end
$var wire 1 T \bit1|cout~0_combout\ $end
$var wire 1 U \a[2]~input_o\ $end
$var wire 1 V \bit2|s~combout\ $end
$var wire 1 W \a[3]~input_o\ $end
$var wire 1 X \b[3]~input_o\ $end
$var wire 1 Y \bit2|cout~0_combout\ $end
$var wire 1 Z \bit3|s~combout\ $end
$var wire 1 [ \bit3|cout~0_combout\ $end
$upscope $end
$upscope $end
$enddefinitions $end
#0
$dumpvars
0)
1*
0/
10
x1
12
13
14
15
16
17
0D
1E
0F
1G
0H
0I
1J
0K
0L
0M
0N
1O
0P
0Q
1R
0S
0T
0U
0V
1W
1X
0Y
0Z
1[
1!
0"
0#
0$
1%
0&
1'
0(
18
09
0:
0;
1<
0=
1>
0?
0@
0A
1B
0C
0+
0,
1-
0.
$end
#5000
0!
1#
0%
0'
1)
1:
08
0>
0<
1D
1M
0X
0O
0W
1P
0[
1N
1F
0J
1C
0E
1.
0*
#10000
1!
1'
1"
1&
19
18
1>
1=
1S
1O
1W
1U
1Z
0R
1T
1Y
0Z
1[
1V
0G
1I
0B
1@
1H
1J
0I
0-
1+
1A
1E
0@
1,
0+
1*
#15000
0'
0"
0#
0>
0:
09
0U
0P
0O
0T
0V
1V
0Y
1Z
0[
0H
0A
1H
0,
1A
0J
1I
1,
0E
1@
0*
1+
#20000
1#
0&
1%
0)
1$
1;
1:
0=
1<
0D
0M
1X
0S
1P
1L
1R
0V
0Z
1[
1J
0I
0H
1G
1E
0@
0A
1B
1*
1-
0,
0+
#25000
1'
1"
0!
1>
19
08
0W
1U
1O
0R
1T
1V
1Z
0[
0V
1Y
0Z
1[
0J
1I
1H
0G
0E
1@
1A
0B
0H
0*
0-
1,
1+
0A
1J
0I
0,
1E
0@
1*
0+
#30000
0"
1!
0$
0;
09
18
1W
0U
0L
0N
1V
0Y
1Z
0Z
1I
1H
0F
1@
1A
0C
0I
0.
1,
1+
0@
0+
#35000
1)
1(
1D
1?
1K
1M
1Q
1R
1G
1B
1-
#40000
0)
0'
0#
1&
0%
0D
0>
1=
0<
0:
0P
0X
1S
0O
0M
1N
0Q
0V
1Y
1Z
0[
0T
1V
0Y
0Z
1[
0R
1Z
0[
0J
1I
0H
1F
0E
1@
0A
1C
0G
1J
0I
1H
0*
1.
0,
1+
0B
1E
0@
1A
0J
1I
0-
1,
0+
1*
0E
1@
0*
1+
#45000
1'
1#
1$
1>
1;
1:
1P
1L
1O
0N
1Q
1T
0V
1Y
1R
0Z
1[
0F
0C
1G
0H
0.
1B
0A
1J
0I
1-
0,
1E
0@
1*
0+
#50000
0'
0$
1"
0!
0>
0;
19
08
0W
1U
0L
0O
0R
1N
0Q
1V
1Z
0[
1R
0T
0V
0J
1I
1H
1F
0G
0E
1@
1A
1C
0B
1G
0*
1.
0-
1,
1+
1B
0H
1-
0A
0,
#55000
1'
1$
1!
0#
1)
0&
1%
0(
0?
1>
0=
1<
1;
0:
18
1D
1M
1W
0P
1L
1X
0S
1O
0K
1V
0Y
1[
0N
1Q
0R
1T
0Z
0V
1Y
0F
1J
1H
1Z
0C
1E
1A
0I
0G
0.
1,
1*
0@
0B
0H
0-
0+
0A
1I
0,
1@
1+
#60000
0$
0!
0)
1&
0%
0"
0;
09
08
0D
1=
0<
0X
1S
0M
0W
0U
0L
0Q
0[
1R
0T
1V
0Y
0J
0Z
0E
1G
0*
1B
1H
1-
1A
0I
1,
0@
0+
#65000
1$
1)
1%
1"
0'
1(
1;
19
1D
1?
0>
1<
1X
0O
1K
1M
1U
1L
0V
1Y
1N
1Q
0R
1Z
1R
0Z
1[
1I
0G
1F
0H
1@
0B
1C
0A
1J
0I
1G
1.
0-
0,
1+
1E
0@
1B
1*
1-
0+
#70000
0$
0%
0"
0(
1!
0&
0;
09
18
0?
0=
0<
0X
0S
0K
1W
0U
0L
0Q
0Y
1Z
0[
0R
0G
0J
1I
0B
0E
1@
0-
1+
0*
#75000
1$
1%
0!
1'
1;
08
1>
1<
1X
1O
0W
1L
0N
1Q
1R
0R
1T
1V
1G
0F
1B
0C
0G
0.
1-
0B
1H
0-
1A
1,
#80000
0%
1!
0'
1"
1(
1&
1?
0>
1=
0<
19
18
1W
1U
0X
1S
0O
1K
1N
1R
0T
1Y
0Z
1[
0V
1G
1F
1B
1C
0H
1J
0I
1.
1-
0A
1E
0@
0,
0+
1*
#85000
0!
0"
0&
1#
1:
09
08
0=
0S
0W
0U
1P
0R
1T
1Z
0[
0Y
0Z
1V
0J
1I
0G
0E
1@
0B
1H
0I
0*
0-
1+
1A
0@
1,
0+
#90000
1!
1"
1'
0(
19
18
0?
1>
1O
0K
1W
1U
0V
1Y
1Z
0N
1R
0Z
1[
1G
0F
1I
0H
1B
0C
1@
0A
1J
0I
0.
1-
0,
1+
1E
0@
1*
0+
#95000
0!
0"
09
08
0W
0U
1V
0Y
1Z
0[
0Z
0J
1I
1H
0E
1@
1A
0I
0*
1,
1+
0@
0+
#100000
1!
1"
1&
1%
19
18
1=
1<
1X
1S
1W
1U
1Y
1[
1Z
1J
1E
1I
1*
1@
1+
#105000
0"
0'
1(
0$
0)
0;
09
1?
0>
0D
0M
0O
1K
0U
0L
0V
0R
1N
0Q
1R
0T
1V
0Y
1F
0G
0H
0Z
1C
0B
0A
1G
1.
0-
0,
1B
1H
1-
1A
0I
1,
0@
0+
#110000
0(
1)
0!
0%
0?
0<
1D
08
0W
1M
0X
0K
0[
0J
0E
0*
#115000
0)
1'
1$
0&
0D
1>
0=
1;
1L
0S
1O
0M
0R
1T
0V
1V
0H
0G
0A
0B
1H
0-
0,
1A
1,
#120000
1)
0'
1&
1(
1%
1D
1?
0>
1=
1<
1X
1S
0O
1K
1M
1Q
1R
0T
0V
1Y
1Z
0Z
1[
1V
0Y
0R
1T
0V
1Y
1Z
0[
1I
0H
1G
0Z
1[
1@
0A
1B
0G
1H
1J
0I
1-
0,
1+
0B
1A
1E
0@
0J
1I
0H
0-
1,
0+
1*
0E
1@
0A
1J
0I
0*
0,
1+
1E
0@
1*
0+
#125000
0&
0%
1!
1"
0#
0=
0<
0:
19
18
1W
1U
0P
0X
0S
1R
0T
1V
0Y
1Z
0[
1G
1B
1H
1-
1A
0J
1I
1,
0E
1@
0*
1+
#130000
0)
1'
0$
0D
1>
0;
0L
1O
0M
0R
1T
0Q
1R
0T
0V
1Y
0Z
1[
1V
0Y
0G
1Z
0[
0B
0H
1G
0-
0A
1B
1H
1J
0I
1-
0,
1A
1E
0@
0J
1I
1,
0+
1*
0E
1@
0*
1+
#135000
1)
1%
1D
1<
1X
1M
0N
1Q
0Z
1[
0R
1T
0V
1Y
1J
0I
0F
1Z
1E
0@
0C
0G
1*
0.
0+
0B
0H
0-
0A
1I
0,
1@
1+
#140000
0%
0'
1$
0"
1#
0>
0<
1;
1:
09
0U
1P
1L
0X
0O
0Z
1N
1V
0Y
1Z
0[
1H
1F
0I
1A
1C
0@
0J
1I
1.
1,
0+
0E
1@
0*
1+
#145000
1%
0$
1"
0#
1&
1=
1<
0;
0:
19
1U
0P
0L
1X
1S
0Z
1[
0N
1R
0T
1Y
1Z
0V
1G
0F
1J
0I
1B
0C
1E
0@
0H
1I
0.
1-
0+
1*
0A
1@
0,
1+
#150000
0%
0"
1#
0&
1'
0!
1>
0=
0<
1:
09
08
0W
0U
1P
0X
0S
1O
1T
0Y
0[
0Z
1V
0J
0E
1H
0I
0*
1A
0@
1,
0+
#155000
1%
1"
0'
1!
0)
0>
1<
19
18
0D
0M
1W
1U
1X
0O
0R
0V
1Y
1[
1N
0Q
1R
0T
1Z
1V
0Y
1F
1J
0H
0G
0Z
1C
1E
0A
0B
1I
1G
1.
0-
0,
1*
1@
1B
1H
1-
1+
1A
0I
1,
0@
0+
#160000
0"
1'
1&
0(
09
0?
1>
1=
1S
1O
0K
0U
0N
0R
1T
0V
1Y
1Z
0G
0F
0B
0C
0H
0.
0-
0A
1I
0,
1@
1+
#165000
0'
0&
1(
0!
0#
1$
1?
0>
0=
1;
0:
08
0W
0P
1L
0S
0O
1K
1V
0Y
1Q
0T
0Z
0V
1R
1Z
0[
0I
1H
0@
1A
0J
1I
1G
0H
1,
0+
0E
1@
1B
0A
0*
1-
0,
1+
#170000
1'
1!
1#
0$
1"
0%
1)
1>
0<
0;
1:
19
18
1D
1M
1W
1U
1P
0L
0X
1O
1T
1V
0V
1Y
0Z
1[
1H
1A
0H
1,
0A
1J
0I
0,
1E
0@
1*
0+
#175000
0!
0#
0"
1%
1&
0:
09
08
1=
1<
1X
1S
0W
0U
0P
0R
0G
0B
0-
#180000
1!
0%
0&
0'
18
0>
0=
0<
0X
0S
0O
1W
1R
0T
1V
0Y
1Z
0[
0V
1H
1G
1A
1B
0H
0J
1I
1-
1,
0A
0E
1@
0,
1+
0*
#185000
0!
1%
1'
1"
1$
0)
0(
1;
19
08
0?
1>
1<
0D
0M
1X
1O
0K
0W
1U
1L
1V
0R
1T
1N
0Q
1R
0T
0V
1Y
0Z
1[
1V
0Y
1F
0G
1H
1Z
0[
1C
0B
1A
0H
1G
1.
0-
1,
0A
1B
1H
1J
0I
1-
0,
1A
1E
0@
0J
1I
1,
0+
1*
0E
1@
0*
1+
#190000
1!
0%
0$
1&
0;
18
1=
0<
0X
1S
1W
0L
0N
0V
1Y
0Z
1[
0H
0F
0A
0C
1J
0I
0.
0,
1E
0@
1*
0+
#195000
1%
1$
0'
1(
1#
1?
0>
1<
1;
1:
1P
1L
1X
0O
1K
1Z
1Q
0R
1T
1V
1I
1@
0G
1+
0B
1H
0-
1A
1,
#200000
0%
1'
0!
0&
0"
1)
1>
0=
0<
09
08
1D
1M
0W
0U
0X
0S
1O
1R
0Y
0[
1N
0Z
1F
0J
1G
1C
0E
1B
0I
1.
1-
0*
0@
0+
#205000
1%
1!
1&
0#
1=
1<
0:
18
1W
0P
1X
1S
0V
1Y
0R
1[
1Z
1J
0G
0H
1E
0B
0A
1I
1*
0-
0,
1@
1+
#210000
0!
1#
0'
1"
0)
0$
0;
1:
19
08
0>
0D
0M
0O
0W
1U
1P
0L
1V
0Z
0Q
1R
0T
0V
0I
1H
0@
1A
1G
1,
0+
1B
0H
1-
0A
0,
#215000
0#
0"
1$
0&
1;
0:
09
0=
0S
0U
0P
1L
0N
1Q
0R
0Y
1Z
0[
1R
0G
0F
0B
0C
1G
0J
1I
0.
0-
1B
0E
1@
1-
1+
0*
#220000
1"
0$
1!
1'
1)
0(
0;
19
18
0?
1>
1D
1M
1O
0K
1W
1U
0L
1V
0Z
1[
0R
1T
1N
0Q
1R
0T
0V
1Y
1Z
1V
0Y
1F
0G
1J
0I
1H
0Z
1C
0B
1E
0@
1A
0H
1G
1.
0-
1,
0+
1*
0A
1B
1H
1I
1-
0,
1A
1@
0I
1,
1+
0@
0+
#225000
0!
0'
08
0>
0O
0W
1Z
0[
0R
0G
0J
1I
0B
0E
1@
0-
1+
0*
#230000
1!
1'
1$
0)
1&
0%
1;
18
1>
1=
0<
0D
0M
0X
1S
1O
1W
1L
1R
0V
1Y
0Z
1[
0H
1G
0A
1B
1J
0I
1-
0,
1E
0@
1*
0+
#235000
0$
1)
1%
0"
1(
1#
0;
1:
09
1D
1?
1<
1X
1K
1M
0U
1P
0L
0R
1T
1V
0Y
0N
1Q
1Z
1R
0Z
0V
1Y
1Z
1I
0F
1H
0G
1@
0C
1A
0B
0H
0I
1G
0.
0-
1,
1+
0A
0@
1B
1I
1-
0,
0+
1@
1+
#240000
1"
0(
0#
0!
0:
19
08
0?
0K
0W
1U
0P
0R
1V
0Z
1N
0Q
1R
0T
0V
1F
0I
1H
0G
1C
0@
1A
0B
1G
1.
0-
1,
0+
1B
0H
1-
0A
0,
#245000
0"
1(
1$
0)
0%
0&
1;
09
1?
0=
0<
0D
0M
0X
0S
1K
0U
1L
0Y
1Z
0[
0N
1Q
0R
1T
0Z
1V
0F
0J
1I
0C
0E
1@
0I
0G
0.
1+
0*
0@
0B
1H
0-
0+
1A
1,
#250000
0(
0$
1)
1&
1#
0?
1=
0;
1:
1D
1M
1P
0L
1S
0K
0V
1Y
1R
1N
0Q
0R
1Z
1F
1G
0H
1C
1B
0A
1I
0G
1.
1-
0,
1@
0B
0-
1+
#255000
1(
0)
0&
1"
1!
0'
1?
0>
0=
0D
19
18
1W
1U
0M
0S
0O
1K
1R
0T
0Z
1[
1V
0Y
1Z
0[
1J
0I
1G
1E
0@
1B
1H
1*
1-
0+
1A
0J
1I
1,
0E
1@
0*
1+
#260000
0(
1&
0"
0!
0#
1%
0?
1=
1<
0:
09
08
0W
0U
0P
1X
1S
0K
0N
0R
0G
0F
0B
0C
0.
0-
#265000
1(
1!
1)
1$
1?
1;
18
1D
1M
1W
1L
1K
0Z
1[
1N
1Q
1R
1F
1J
0I
1C
1E
0@
1G
1.
0+
1*
1B
1-
#270000
0(
0!
0$
1'
0?
1>
0;
08
0W
0L
1O
0K
0R
1T
0Q
1Z
0[
1R
0T
0V
1Y
0Z
1[
1V
0Y
0J
1I
0G
1Z
0[
0E
1@
0B
0H
1G
0*
0-
1+
0A
1B
1H
1J
0I
1-
0,
1A
1E
0@
0J
1I
1,
0+
1*
0E
1@
0*
1+
#275000
1(
1!
0'
1#
0%
1?
0>
0<
1:
18
1W
1P
0X
0O
1K
0N
1Q
0R
1T
0V
1Y
0F
0Z
1[
0C
0G
0.
0B
0H
0-
0A
1J
0I
0,
1E
0@
1*
0+
#280000
0(
1'
0#
1%
1$
1"
0?
1>
1<
1;
0:
19
1U
0P
1L
1X
1O
0K
1Z
1V
1H
1I
1A
1@
1,
1+
#285000
1(
0'
0!
0)
0&
1?
0>
0=
08
0D
0M
0W
0S
0O
1K
1R
0T
0V
0Z
1V
0Y
1Z
0[
0I
0H
1G
0@
0A
1B
1H
1-
0,
0+
1A
0J
1I
1,
0E
1@
0*
1+
#290000
1!
1)
1#
0$
0"
0;
1:
09
18
1D
1M
1W
0U
1P
0L
0R
1T
0V
0Z
1[
1V
1J
0I
0H
0G
1E
0@
0A
0B
1H
1*
0-
0,
0+
1A
1,
#295000
1"
0(
19
0?
0K
1U
0V
1Y
1N
0Q
1R
0T
1Z
1V
0Y
1F
0H
0Z
1C
0A
1I
1G
1.
0,
1@
1B
1H
1-
1+
1A
0I
1,
0@
0+
#300000
0"
0#
1$
1'
1;
0:
09
1>
1O
0U
0P
1L
0N
1Q
0V
0R
1T
1V
0H
0F
0A
0C
0G
0.
0,
0B
1H
0-
1A
1,
#305000
1"
1#
0)
1:
19
0D
0M
1U
1P
1R
0V
1Y
1N
0Q
0R
1Z
1F
0H
1G
1C
0A
1B
1I
0G
1.
1-
0,
1@
0B
0-
1+
#310000
0"
1)
0$
0!
0%
0;
09
08
1D
0<
0X
1M
0W
0U
0L
1V
0Y
0[
0Z
0J
1H
0E
1A
0I
0*
1,
0@
0+
#315000
1"
1!
1(
1&
19
18
1?
1=
1S
1K
1W
1U
1Z
0N
1Q
1Y
0Z
1[
1R
0F
1I
0C
1@
1G
1J
0I
0.
1+
1B
1E
0@
1-
0+
1*
#320000
0"
0(
0&
0#
0:
09
0?
0=
0S
0K
0U
0P
0R
1N
0Q
0Y
1Z
0[
1R
0T
0V
1F
0G
1C
0B
1G
0J
1I
1.
0-
1B
0E
1@
0H
1-
1+
0*
0A
0,
#325000
1"
1(
1&
1#
0!
0)
1$
0'
1;
1:
19
08
1?
0>
1=
0D
0M
1S
0O
1K
0W
1U
1P
1L
0Z
1Y
0N
1Q
0R
1T
1Z
1V
0F
0I
0C
0@
1I
0G
0.
0+
1@
0B
1H
0-
1+
1A
1,
#330000
0(
0&
0#
1!
1)
1'
0?
1>
0=
0:
18
1D
1M
1W
0P
0S
1O
0K
0V
0Z
1[
1J
0I
0H
1E
0@
0A
1*
0,
0+
#335000
1(
1&
0)
0"
0$
1%
1?
1=
1<
0D
0;
09
0U
0L
0M
1X
1S
1K
1Z
1N
0Q
1R
0T
1V
0Y
1F
1I
0Z
1C
1@
1G
1.
1+
1B
1H
1-
1A
0I
1,
0@
0+
#340000
0(
0&
1#
0!
0'
0?
0>
0=
1:
08
0W
1P
0S
0O
0K
0N
0V
1Z
0[
0J
1I
0H
0F
0E
1@
0A
0C
0*
0.
0,
1+
#345000
1(
1&
0#
1'
1?
1>
1=
0:
0P
1S
1O
1K
1N
1V
1H
1F
1A
1C
1.
1,
#350000
0%
0<
0X
0Z
0I
0@
0+
#355000
1!
1)
1"
1$
1;
19
18
1D
1M
1W
1U
1L
0V
1Y
1Z
1Q
0R
1T
0Z
1[
1V
1I
0H
1@
0A
1J
0I
0G
0,
1+
1E
0@
0B
1H
1*
0-
0+
1A
1,
#360000
0!
0"
0$
1#
0'
0;
1:
09
08
0>
0O
0W
0U
1P
0L
0N
0V
1Z
0[
0J
1I
0H
0F
0E
1@
0A
0C
0*
0.
0,
1+
#365000
1"
1$
0(
0&
1;
19
0?
0=
0S
0K
1U
1L
#370000
0"
0$
1(
1&
0#
1'
0)
1%
0;
0:
09
1?
1>
1=
1<
0D
0M
1X
1S
1O
1K
0U
0P
0L
0Z
1[
1N
0Q
1R
0T
1V
0Y
1F
1J
0I
1Z
0[
1C
1E
0@
1G
1.
0+
1*
1B
1H
1-
1A
0J
1I
1,
0E
1@
0*
1+
#375000
1$
0&
1#
1;
1:
0=
0S
1P
1L
0N
1Q
0R
1T
0V
1V
1R
0H
0G
0F
0A
0B
0C
1G
1H
0.
0-
0,
1B
1A
1-
1,
#380000
0$
1&
0#
1"
0(
0%
0;
0:
19
0?
1=
0<
0X
1S
0K
1U
0P
0L
0R
0Q
1Y
0Z
1Z
1R
0T
0V
0I
0G
0@
0B
1G
1I
0-
0+
1B
1@
0H
1-
1+
0A
0,
#385000
1$
1(
0'
1)
1;
1?
0>
1D
1M
0O
1K
1L
0R
1N
1Q
1R
1F
0G
1C
0B
1G
1.
0-
1B
1-
#390000
0$
0&
1#
1%
1!
0;
1:
18
0=
1<
1X
0S
1W
1P
0L
0N
0R
1T
1V
0Y
1[
0Z
0V
1Y
1Z
1J
1H
0G
0F
1E
1A
0B
0C
0H
0I
1*
0.
0-
1,
0A
0@
1I
0,
0+
1@
1+
#395000
1'
0"
1>
09
0U
1O
1R
1V
0Y
0Z
1H
1G
1A
1B
0I
1-
1,
0@
0+
#400000
1$
0!
0(
0)
1;
08
0?
0D
0M
0K
0W
1L
1Z
0[
1N
0Q
0R
1F
0J
1I
1C
0E
1@
0G
1.
1+
0*
0B
0-
#405000
0$
1(
1)
0'
1&
0#
0%
0;
0:
1?
0>
1=
0<
1D
1M
0X
1S
0O
1K
0P
0L
0T
0V
1Y
0Z
0N
1Q
1R
1Z
1V
0Y
0Z
0F
0I
0H
0C
0@
0A
1H
1I
1G
0.
0,
0+
1A
1@
1B
0I
1-
1,
1+
0@
0+
#410000
1$
0(
1'
0&
1#
1"
1;
1:
19
0?
1>
0=
0S
1O
0K
1U
1P
1L
1T
0V
1Y
1Z
0H
0A
1I
0,
1@
1+
#415000
1&
0)
1=
0D
0M
1S
1V
1N
0Q
0R
1F
1H
1C
1A
0G
1.
1,
0B
0-
#420000
0$
1(
0'
1%
1!
0;
18
1?
0>
1<
1X
0O
1K
1W
0L
1R
0T
1[
0V
1J
1G
1E
1B
0H
1*
1-
0A
0,
#425000
1$
0%
0!
0&
0#
0"
1;
0:
09
08
0=
0<
0X
0S
0W
0U
0P
1L
0N
1Q
0R
0Y
0[
0Z
1R
0J
0G
0F
0E
0B
0C
1G
0I
0*
0.
0-
1B
0@
1-
0+
#430000
0$
1&
1#
1'
0;
1:
1>
1=
1S
1O
1P
0L
1N
0Q
1T
1V
0V
1Y
0R
1Z
1H
1F
1A
1C
0G
0H
1.
1,
0B
0A
1I
0-
0,
1@
1+
#435000
1%
1!
0(
1)
0?
1<
18
1D
1M
1W
1X
0K
1[
1J
1E
1*
#440000
0%
1(
0)
0&
0'
1"
1?
0>
0=
0<
0D
19
1U
0M
0X
0S
0O
1K
1R
0T
0Z
1V
0Y
1Z
0[
0I
1G
0@
1B
1H
1-
0+
1A
0J
1I
1,
0E
1@
0*
1+
#445000
1%
1'
0"
0!
0#
1>
1<
0:
09
08
0W
0U
0P
1X
1O
0V
0H
0A
0,
#450000
0'
1"
1!
1#
1$
0>
1;
1:
19
18
1W
1U
1P
1L
0O
0N
1Q
1V
0Z
1[
0R
1T
0V
1Y
1J
0I
1H
0F
1Z
1E
0@
1A
0C
0G
1*
0.
1,
0+
0B
0H
0-
0A
1I
0,
1@
1+
#455000
0"
0!
0#
0%
1&
0:
09
08
1=
0<
0X
1S
0W
0U
0P
1R
0T
0[
1V
0Y
0Z
0J
1G
0E
1B
1H
0*
1-
1A
0I
1,
0@
0+
#460000
1!
1%
0&
1'
0(
18
0?
1>
0=
1<
1X
0S
1O
0K
1W
1N
0Q
0R
1T
0V
1[
1V
1R
0T
0V
1J
0H
0G
1F
1E
0A
0B
1C
1G
1H
1*
1.
0-
0,
1B
1A
0H
1-
1,
0A
0,
#465000
0!
1&
1(
1#
0$
0;
1:
08
1?
1=
1S
1K
0W
1P
0L
0R
1T
1Z
0[
1V
0V
1Y
0Z
1[
1H
0J
1I
0G
1A
0E
1@
0B
0H
0-
1,
1+
0*
0A
1J
0I
0,
1E
0@
1*
0+
#470000
1!
0#
0%
0'
0:
18
0>
0<
0X
0O
1W
0P
0T
1V
0Y
1Z
0[
1H
1A
0J
1I
1,
0E
1@
0*
1+
#475000
0!
1#
1%
0(
1)
1:
08
0?
1<
1D
1M
1X
0K
0W
1P
1R
1G
1B
1-
#480000
0#
0%
1(
0)
1'
0&
0:
1?
1>
0=
0<
0D
0M
0X
0S
1O
1K
0P
0V
0Z
0I
0H
0@
0A
0,
0+
#485000
1#
1$
1;
1:
1P
1L
0N
1Q
0R
1T
1V
1R
0G
0F
0B
0C
1G
1H
0.
0-
1B
1A
1-
1,
#490000
0#
0'
1&
1!
1"
0:
19
18
0>
1=
1S
0O
1W
1U
0P
1Z
0T
1Y
0Z
1[
0V
1I
1@
0H
1J
0I
1+
0A
1E
0@
0,
0+
1*
#495000
0!
0$
0(
0;
08
0?
0K
0W
0L
1Z
0[
0Q
0R
0J
1I
0E
1@
0G
0*
1+
0B
0-
#500000
1!
1$
1(
1'
0"
1;
09
18
1?
1>
1O
1K
1W
0U
1L
1V
0Y
0Z
1[
1Q
1R
0R
1T
1Z
0[
0V
1Y
1G
1J
0I
1H
0Z
1[
1B
1E
0@
1A
0J
1I
0G
1-
1,
0+
1*
0E
1@
0B
0H
0*
0-
1+
0A
1J
0I
0,
1E
0@
1*
0+
#505000
0$
1"
0&
0;
19
0=
0S
1U
0L
1N
0Q
1R
0T
1V
0Y
1F
1Z
0[
1C
1G
1.
1B
1H
1-
1A
0J
1I
1,
0E
1@
0*
1+
#510000
1$
0"
0(
1)
1;
09
0?
1D
1M
0K
0U
1L
0V
0N
1Q
0R
1T
1V
0F
0H
0C
0A
0G
0.
0,
0B
1H
0-
1A
1,
#515000
0$
1(
0)
1&
0!
0'
0;
08
1?
0>
1=
0D
0M
1S
0O
1K
0W
0L
0Z
1R
0T
0V
1Y
1N
0Q
0R
1Z
1V
0Y
0Z
1F
0H
1G
0I
1C
0A
1B
0@
1H
1I
0G
1.
1-
0,
0+
1A
1@
0B
0I
0-
1,
1+
0@
0+
#520000
1$
0(
1#
1%
1;
1:
0?
1<
1X
0K
1P
1L
1R
1Z
1I
1G
1@
1B
1-
1+
#525000
0$
0#
0%
1)
1!
1'
0;
0:
18
1>
0<
1D
1M
0X
1O
1W
0P
0L
#530000
0)
0&
0D
0=
0S
0M
0N
0V
0H
0F
0A
0C
0.
0,
#535000
1)
1&
1$
1#
0!
0'
1"
1D
0>
1=
1;
1:
19
08
0W
1U
1P
1L
1S
0O
1M
1Q
1Y
0Z
1Z
0R
1T
1V
0I
0@
0G
1I
0+
0B
1@
1H
0-
1+
1A
1,
#540000
0)
0$
1!
1'
1%
1(
0D
0;
18
1?
1>
1<
1X
1O
1K
1W
0L
0M
1N
0Q
1R
1[
0R
1J
1G
1F
1E
1B
1C
0G
1*
1.
1-
0B
0-
#545000
1$
0!
0(
0#
1;
0:
08
0?
0K
0W
0P
1L
1R
0T
0Z
0V
0I
1G
0@
1B
0H
1-
0+
0A
0,
#550000
1(
1#
0%
0&
0"
1?
0=
0<
1:
09
0U
1P
0X
0S
1K
0N
1Q
1Z
0[
0R
1T
0Y
0Z
1V
1R
0G
0J
1I
0F
0B
0E
1@
0C
1G
1H
0I
0.
0-
1+
0*
1B
1A
0@
1-
1,
0+
#555000
0(
0#
1&
1!
0?
1=
0:
18
1W
0P
1S
0K
1N
0Q
0V
1Y
0R
1Z
0Z
1[
1R
0T
1V
0Y
1I
0G
0H
1F
1Z
0[
1@
0B
0A
1C
1G
1J
0I
1.
0-
0,
1+
1B
1E
0@
1H
1-
0+
1*
1A
0J
1I
1,
0E
1@
0*
1+
#560000
1#
0&
0!
1%
1)
1:
08
0=
1<
1D
1M
1X
0S
0W
1P
0R
1T
0V
0N
1Q
1R
1V
0F
0H
0G
0C
0A
0B
1H
1G
0.
0-
0,
1A
1B
1-
1,
#565000
0#
1&
1!
0%
1"
0'
0:
19
18
0>
1=
0<
0X
1S
0O
1W
1U
0P
0T
1Y
0Z
1[
0V
0H
1J
0I
0A
1E
0@
0,
0+
1*
#570000
0&
0!
1%
0"
0)
0=
1<
09
08
0D
0M
0W
0U
1X
0S
0Y
1N
0Q
0R
1Z
0[
1F
1C
0J
1I
0G
1.
0E
1@
0B
0*
0-
1+
#575000
1!
0%
1)
1#
1(
0$
0;
1:
18
1?
0<
1D
1M
0X
1K
1W
1P
0L
1R
0N
1Q
0R
1T
1V
0F
1G
0C
1B
0G
0.
1-
0B
1H
0-
1A
1,
#580000
0!
1%
0)
0(
1$
1&
1;
08
0?
1=
1<
0D
0M
1X
1S
0K
0W
1L
0V
1Y
1N
0Q
1R
0T
0Z
1[
1V
0Y
1F
0H
1Z
0[
1C
0A
1J
0I
1G
1.
0,
1E
0@
1B
1H
1*
1-
0+
1A
0J
1I
1,
0E
1@
0*
1+
#585000
1!
1)
0$
1'
0;
18
1D
1>
1O
1M
1W
0L
0Z
1[
0R
1T
0V
1Y
1Z
0G
1J
0I
0B
1E
0@
0H
0-
0+
1*
0A
1I
0,
1@
1+
#590000
0)
1$
0%
1(
0&
0#
1"
0D
1;
0:
19
1?
0=
0<
0X
0S
1K
1U
0P
1L
0M
1R
0T
0N
1Q
0Z
0R
1T
1V
0Y
1Z
0[
0V
1Y
0I
0F
1G
0Z
1[
0@
0C
1B
1H
0G
0.
1-
0+
1A
0B
0H
0J
1I
0-
1,
0A
0E
1@
1J
0I
0,
1+
0*
1E
0@
1*
0+
#595000
1%
1#
0"
0!
0'
0>
1<
1:
09
08
0W
0U
1P
1X
0O
1V
0Y
1Z
0[
1H
1A
0J
1I
1,
0E
1@
0*
1+
#600000
0%
0#
1'
0$
1&
1>
1=
0<
0;
0:
0P
0L
0X
1S
1O
0V
1Y
0Z
1N
0Q
1R
0T
1Z
1V
0Y
1F
0I
0H
0Z
1C
0@
0A
1I
1G
1.
0,
0+
1@
1B
1H
1-
1+
1A
0I
1,
0@
0+
#605000
1%
1#
0'
1$
1)
0>
1<
1;
1:
1D
1M
1P
1L
1X
0O
1Z
1Q
0R
1T
0V
1Y
1I
0Z
1[
1@
0G
1+
0B
0H
0-
0A
1J
0I
0,
1E
0@
1*
0+
#610000
0%
1'
0$
1!
1>
0<
0;
18
1W
0L
0X
1O
1R
0N
0F
1G
0C
1B
0.
1-
