isd/aula 5/EqCmpDemo/simulation/qsim/EqCmpDemo.msim.vcd
$comment
	File created using the following command:
		vcd file EqCmpDemo.msim.vcd -direction
$end
$date
	Thu Nov 03 16:52:46 2022
$end
$version
	ModelSim Version 2020.1
$end
$timescale
	1ps
$end

$scope module EqCmpDemo_vlg_vec_tst $end
$var reg 4 ! inport0 [3:0] $end
$var reg 4 " inport1 [3:0] $end
$var wire 1 # cmpPort $end

$scope module i1 $end
$var wire 1 $ gnd $end
$var wire 1 % vcc $end
$var wire 1 & unknown $end
$var tri1 1 ' devclrn $end
$var tri1 1 ( devpor $end
$var tri1 1 ) devoe $end
$var wire 1 * cmpPort~output_o $end
$var wire 1 + inport0[3]~input_o $end
$var wire 1 , inport0[2]~input_o $end
$var wire 1 - inport1[2]~input_o $end
$var wire 1 . inport1[3]~input_o $end
$var wire 1 / inst|inst4~0_combout $end
$var wire 1 0 inport0[1]~input_o $end
$var wire 1 1 inport0[0]~input_o $end
$var wire 1 2 inport1[0]~input_o $end
$var wire 1 3 inport1[1]~input_o $end
$var wire 1 4 inst|inst4~1_combout $end
$var wire 1 5 inst|inst4~combout $end
$upscope $end
$upscope $end
$enddefinitions $end
#0
$dumpvars
b1000 !
b1 "
0#
0$
1%
x&
1'
1(
1)
0*
1+
0,
0-
0.
0/
00
01
12
03
04
05
$end
#20000
b0 !
b10 !
b11 !
11
10
0+
1/
#40000
b1001 "
b1000 "
b1011 !
b1001 !
b1000 !
01
00
1+
02
1.
14
15
1*
1#
#60000
b1010 "
13
04
05
0*
0#
#80000
b10 "
b0 "
03
0.
14
0/
#100000
b0 !
b10 !
b11 !
b1000 "
b1010 "
13
1.
11
10
0+
04
#120000
b111 !
b1110 "
b1111 "
b1111 !
b1101 !
b1101 "
12
03
1-
00
1,
1+
14
1/
15
1*
1#
#140000
b101 "
b1 "
b0 "
b101 !
b111 !
b10 "
10
0+
02
13
0-
0.
04
0/
05
0*
0#
#160000
b110 !
b10 !
b110 "
b111 "
b0 !
12
1-
01
00
0,
#180000
b1111 "
b1000 !
b1001 !
b1101 !
11
1,
1+
1.
1/
#200000
b1011 "
b1111 !
b11 "
b111 !
b11 !
10
0,
0+
0-
0.
14
15
1*
1#
#220000
b1 "
b10 !
b0 !
b1001 "
01
00
03
1.
04
0/
05
0*
0#
#240000
b1101 "
b1111 "
b1 !
b111 "
11
13
1-
0.
#260000
b11 "
b1011 "
0-
1.
#280000
b1010 "
b1001 !
1+
02
1/
#300000
b1101 !
b1110 "
b110 "
1-
0.
1,
0/
#320000
b1111 !
b100 "
b1110 !
b101 "
b110 !
12
03
01
10
0+
1/
#340000
b1 "
b100 !
b101 !
b1101 !
11
00
1+
0-
14
0/
#360000
b1001 !
b1001 "
b1011 !
b11 !
1.
10
0,
0+
04
#380000
b1011 "
b1010 "
b1110 "
b10 !
b1010 !
01
1+
02
13
1-
14
#400000
b110 "
b10 !
0+
0.
#420000
b110 !
b111 "
b11 "
b1110 !
12
0-
1,
1+
04
#440000
b1011 "
b1010 !
b1010 "
b1110 "
b10 !
0,
0+
02
1-
1.
14
#460000
b0 !
b1100 "
b1101 "
b1001 "
b1000 !
12
03
0-
00
1+
04
1/
#480000
b1 "
b0 "
02
0.
14
0/
#500000
b1001 !
b1011 !
b11 !
11
10
0+
04
1/
#520000
b111 !
b100 "
b1100 "
1-
1.
1,
0/
#540000
b101 !
b1 !
b1000 "
b0 "
0-
0.
00
0,
1/
#560000
b1 "
b11 !
b101 "
10
12
1-
0/
#580000
b1011 !
b1101 "
b1100 "
02
1.
1+
#600000
b1001 !
b1 !
b100 "
0.
00
0+
#620000
b110 "
b11 !
b1011 !
10
1+
13
#640000
b10 "
b11 "
b1011 "
b1001 "
b11 !
0+
12
03
0-
1.
#660000
b10 !
b110 !
b100 !
b1101 "
b1100 "
02
1-
01
00
1,
14
#680000
b1110 "
b1100 !
b1010 "
b1011 "
1+
12
13
0-
04
#700000
b11 "
b1000 !
b1010 !
b1 "
b101 "
10
0,
03
1-
0.
#720000
b1011 !
b100 "
02
11
#740000
b11 !
b110 "
b10 "
b10 !
13
0-
01
0+
14
1/
15
1*
1#
#760000
b1010 "
b110 !
b100 !
b1000 "
b101 !
11
00
1,
03
1.
04
0/
05
0*
0#
#780000
b1100 "
b100 "
b111 !
10
1-
0.
1/
#800000
b1111 !
b0 "
b1000 "
0-
1.
1+
0/
#820000
b1001 "
b1110 !
01
12
#840000
b1101 "
b1111 !
11
1-
1/
#860000
b1011 !
b1111 "
b1001 !
b1 !
b111 "
b110 "
b10 "
b0 !
02
13
0-
0.
01
00
0,
0+
#880000
b0 "
b1000 "
b1001 "
12
03
1.
0/
#900000
b10 !
b1101 "
b101 "
b100 "
02
1-
0.
10
#920000
b1010 !
b1100 "
1.
1+
#940000
b1110 !
b1111 !
b1110 "
b1101 !
b1010 "
b101 !
b10 "
13
0-
0.
11
00
1,
0+
#960000
b11 "
b1 !
b1 "
b11 !
b101 "
b1011 !
10
0,
1+
12
03
1-
#980000
b1010 !
b1101 "
b1100 "
b1110 !
b1100 !
b1000 "
b100 !
02
0-
1.
01
00
1,
0+
14
