LSD/P/aula2/FPGA_2/simulation/qsim/Dec2_4EnDemo.msim.vcd
$comment
	File created using the following command:
		vcd file Dec2_4EnDemo.msim.vcd -direction
$end
$date
	Thu Mar 02 09:36:57 2023
$end
$version
	ModelSim Version 2020.1
$end
$timescale
	1ps
$end

$scope module dec2_4en_vhd_vec_tst $end
$var wire 1 ! enable $end
$var wire 1 " inputs [1] $end
$var wire 1 # inputs [0] $end
$var wire 1 $ outputs [3] $end
$var wire 1 % outputs [2] $end
$var wire 1 & outputs [1] $end
$var wire 1 ' outputs [0] $end

$scope module i1 $end
$var wire 1 ( gnd $end
$var wire 1 ) vcc $end
$var wire 1 * unknown $end
$var wire 1 + devoe $end
$var wire 1 , devclrn $end
$var wire 1 - devpor $end
$var wire 1 . ww_devoe $end
$var wire 1 / ww_devclrn $end
$var wire 1 0 ww_devpor $end
$var wire 1 1 ww_enable $end
$var wire 1 2 ww_inputs [1] $end
$var wire 1 3 ww_inputs [0] $end
$var wire 1 4 ww_outputs [3] $end
$var wire 1 5 ww_outputs [2] $end
$var wire 1 6 ww_outputs [1] $end
$var wire 1 7 ww_outputs [0] $end
$var wire 1 8 \outputs[0]~output_o\ $end
$var wire 1 9 \outputs[1]~output_o\ $end
$var wire 1 : \outputs[2]~output_o\ $end
$var wire 1 ; \outputs[3]~output_o\ $end
$var wire 1 < \enable~input_o\ $end
$var wire 1 = \inputs[1]~input_o\ $end
$var wire 1 > \inputs[0]~input_o\ $end
$var wire 1 ? \outputs~0_combout\ $end
$var wire 1 @ \outputs~1_combout\ $end
$var wire 1 A \outputs~2_combout\ $end
$var wire 1 B \outputs~3_combout\ $end
$upscope $end
$upscope $end
$enddefinitions $end
#0
$dumpvars
0!
0(
1)
x*
1+
1,
1-
1.
1/
10
01
08
09
0:
0;
0<
1=
1>
0?
0@
0A
0B
1"
1#
12
13
04
05
06
07
0$
0%
0&
0'
$end
#5000
1!
0#
11
03
0>
1<
1A
1:
15
1%
#10000
0!
01
0<
0A
0:
05
0%
#15000
1!
1#
0"
11
13
02
0=
1>
1<
1@
19
16
1&
#20000
0!
1"
01
12
1=
0<
0@
09
06
0&
#25000
1!
0"
0#
11
03
02
0=
0>
1<
1?
18
17
1'
#35000
0!
1"
01
12
1=
0<
0?
08
07
0'
#40000
0"
1#
13
02
0=
1>
#45000
0#
1!
03
11
1<
0>
1?
18
17
1'
#50000
0!
1"
01
12
1=
0<
0?
08
07
0'
#60000
0"
1#
13
02
0=
1>
#65000
1"
1!
12
11
1<
1=
1B
1;
14
1$
#70000
0"
0#
03
02
0=
0>
1?
0B
0;
18
04
17
1'
0$
#80000
1"
12
1=
0?
1A
1:
08
15
07
0'
1%
#90000
0"
02
0=
1?
0A
0:
18
05
17
1'
0%
#95000
1#
13
1>
0?
1@
19
08
16
07
0'
1&
#100000
0#
0!
03
01
0<
0>
0@
09
06
0&
#105000
1#
1!
13
11
1<
1>
1@
19
16
1&
#110000
0#
0!
03
01
0<
0>
0@
09
06
0&
#115000
1#
1!
13
11
1<
1>
1@
19
16
1&
#120000
0!
01
0<
0@
09
06
0&
#125000
1!
11
1<
1@
19
16
1&
#130000
0!
0#
1"
01
03
12
1=
0>
0<
0@
09
06
0&
#135000
1#
0"
13
02
0=
1>
#145000
1!
11
1<
1@
19
16
1&
#150000
0#
03
0>
1?
0@
09
18
06
17
1'
0&
#155000
0!
01
0<
0?
08
07
0'
#160000
1"
12
1=
#165000
1!
11
1<
1A
1:
15
1%
#170000
0"
02
0=
1?
0A
0:
18
05
17
1'
0%
#175000
1"
12
1=
0?
1A
1:
08
15
07
0'
1%
#180000
0"
0!
1#
13
02
01
0<
0=
1>
0A
0:
05
0%
#185000
1!
11
1<
1@
19
16
1&
#195000
0!
1"
01
12
1=
0<
0@
09
06
0&
#200000
1!
0"
0#
11
03
02
0=
0>
1<
1?
18
17
1'
#205000
1"
12
1=
0?
1A
1:
08
15
07
0'
1%
#210000
1#
13
1>
0A
1B
1;
0:
14
05
0%
1$
#215000
0#
0"
03
02
0=
0>
1?
0B
0;
18
04
17
1'
0$
#220000
1"
12
1=
0?
1A
1:
08
15
07
0'
1%
#225000
0"
0!
02
01
0<
0=
0A
0:
05
0%
#230000
1#
13
1>
#235000
0#
1"
03
12
1=
0>
#245000
1#
0"
13
02
0=
1>
#250000
0#
03
0>
#255000
1#
1"
1!
13
12
11
1<
1=
1>
1B
1;
14
1$
#260000
0"
0!
02
01
0<
0=
0B
0;
04
0$
#265000
1"
1!
0#
03
12
11
1<
1=
0>
1A
1:
15
1%
#270000
0!
01
0<
0A
0:
05
0%
#275000
1#
13
1>
#280000
0#
03
0>
#285000
1#
1!
13
11
1<
1>
1B
1;
14
1$
#290000
0!
01
0<
0B
0;
04
0$
#295000
1!
11
1<
1B
1;
14
1$
#300000
0#
03
0>
1A
0B
0;
1:
04
15
1%
0$
#305000
0"
02
0=
1?
0A
0:
18
05
17
1'
0%
#310000
0!
01
0<
0?
08
07
0'
#315000
1!
11
1<
1?
18
17
1'
#320000
1"
12
1=
0?
1A
1:
08
15
07
0'
1%
#330000
0"
0!
1#
13
02
01
0<
0=
1>
0A
0:
05
0%
#335000
1!
0#
11
03
0>
1<
1?
18
17
1'
#340000
1#
13
1>
0?
1@
19
08
16
07
0'
1&
#350000
0#
0!
1"
03
12
01
0<
1=
0>
0@
09
06
0&
#355000
1#
0"
13
02
0=
1>
#360000
0#
1"
1!
03
12
11
1<
1=
0>
1A
1:
15
1%
#365000
0!
01
0<
0A
0:
05
0%
#370000
1!
0"
11
02
0=
1<
1?
18
17
1'
#375000
1"
12
1=
0?
1A
1:
08
15
07
0'
1%
#380000
0"
0!
1#
13
02
01
0<
0=
1>
0A
0:
05
0%
#390000
1"
12
1=
#395000
0"
0#
03
02
0=
0>
#400000
1#
13
1>
#405000
0#
1"
1!
03
12
11
1<
1=
0>
1A
1:
15
1%
#410000
1#
0!
13
01
0<
1>
0A
0:
05
0%
#415000
1!
11
1<
1B
1;
14
1$
#420000
0!
0#
0"
01
03
02
0=
0>
0<
0B
0;
04
0$
#425000
1"
12
1=
#430000
1!
1#
11
13
1>
1<
1B
1;
14
1$
#435000
0#
0"
03
02
0=
0>
1?
0B
0;
18
04
17
1'
0$
#440000
1#
1"
13
12
1=
1>
0?
1B
1;
08
14
07
0'
1$
#445000
0#
0"
0!
03
02
01
0<
0=
0>
0B
0;
04
0$
#455000
1"
12
1=
#460000
1!
11
1<
1A
1:
15
1%
#465000
0!
0"
01
02
0=
0<
0A
0:
05
0%
#470000
1!
1"
1#
11
13
12
1=
1>
1<
1B
1;
14
1$
#475000
0!
01
0<
0B
0;
04
0$
#480000
1!
0"
0#
11
03
02
0=
0>
1<
1?
18
17
1'
#485000
1"
1#
13
12
1=
1>
0?
1B
1;
08
14
07
0'
1$
#490000
0!
01
0<
0B
0;
04
0$
#495000
1!
0"
11
02
0=
1<
1@
19
16
1&
#500000
1"
0#
03
12
1=
0>
0@
1A
1:
09
15
06
0&
1%
#505000
1#
0!
13
01
0<
1>
0A
0:
05
0%
#510000
1!
11
1<
1B
1;
14
1$
#515000
0#
0"
03
02
0=
0>
1?
0B
0;
18
04
17
1'
0$
#520000
1#
1"
0!
13
12
01
0<
1=
1>
0?
08
07
0'
#525000
0#
03
0>
#530000
1#
1!
13
11
1<
1>
1B
1;
14
1$
#540000
0#
03
0>
1A
0B
0;
1:
04
15
1%
0$
#545000
1#
0"
13
02
0=
1>
1@
0A
0:
19
05
16
1&
0%
#550000
0#
1"
0!
03
12
01
0<
1=
0>
0@
09
06
0&
#555000
0"
1!
02
11
1<
0=
1?
18
17
1'
#560000
1"
12
1=
0?
1A
1:
08
15
07
0'
1%
#565000
0!
01
0<
0A
0:
05
0%
#575000
1!
0"
11
02
0=
1<
1?
18
17
1'
#580000
0!
1"
01
12
1=
0<
0?
08
07
0'
#590000
1#
13
1>
#600000
1!
0"
11
02
0=
1<
1@
19
16
1&
#605000
0!
01
0<
0@
09
06
0&
#615000
1!
0#
11
03
0>
1<
1?
18
17
1'
#620000
0!
1#
01
13
1>
0<
0?
08
07
0'
#625000
1!
11
1<
1@
19
16
1&
#630000
0!
0#
01
03
0>
0<
0@
09
06
0&
#635000
1!
11
1<
1?
18
17
1'
#645000
1"
12
1=
0?
1A
1:
08
15
07
0'
1%
#650000
0!
1#
01
13
1>
0<
0A
0:
05
0%
#655000
1!
0#
11
03
0>
1<
1A
1:
15
1%
#660000
0!
1#
0"
01
13
02
0=
1>
0<
0A
0:
05
0%
#665000
1!
11
1<
1@
19
16
1&
#670000
0!
01
0<
0@
09
06
0&
#675000
0#
1"
03
12
1=
0>
#680000
0"
02
0=
#685000
1"
1#
13
12
1=
1>
#690000
0#
03
0>
#695000
1!
11
1<
1A
1:
15
1%
#700000
0!
01
0<
0A
0:
05
0%
#705000
1!
1#
0"
11
13
02
0=
1>
1<
1@
19
16
1&
#710000
0#
1"
03
12
1=
0>
0@
1A
1:
09
15
06
0&
1%
#715000
0"
02
0=
1?
0A
0:
18
05
17
1'
0%
#720000
1"
0!
12
01
0<
1=
0?
08
07
0'
#725000
0"
1!
1#
13
02
11
1<
0=
1>
1@
19
16
1&
#735000
0!
0#
01
03
0>
0<
0@
09
06
0&
#740000
1#
13
1>
#745000
1!
1"
11
12
1=
1<
1B
1;
14
1$
#750000
0#
03
0>
1A
0B
0;
1:
04
15
1%
0$
#755000
0"
02
0=
1?
0A
0:
18
05
17
1'
0%
#760000
1"
0!
12
01
0<
1=
0?
08
07
0'
#765000
1!
11
1<
1A
1:
15
1%
#775000
0!
1#
01
13
1>
0<
0A
0:
05
0%
#780000
1!
0#
11
03
0>
1<
1A
1:
15
1%
#790000
0!
1#
01
13
1>
0<
0A
0:
05
0%
#795000
1!
0"
11
02
0=
1<
1@
19
16
1&
#805000
1"
12
1=
0@
1B
1;
09
14
06
0&
1$
#810000
0"
0!
02
01
0<
0=
0B
0;
04
0$
#815000
1"
12
1=
#820000
0"
02
0=
#825000
1"
1!
0#
03
12
11
1<
1=
0>
1A
1:
15
1%
#830000
0!
1#
01
13
1>
0<
0A
0:
05
0%
#835000
1!
0#
0"
11
03
02
0=
0>
1<
1?
18
17
1'
#845000
0!
1#
01
13
1>
0<
0?
08
07
0'
#850000
1!
11
1<
1@
19
16
1&
#855000
0!
1"
01
12
1=
0<
0@
09
06
0&
#860000
1!
0"
0#
11
03
02
0=
0>
1<
1?
18
17
1'
#865000
0!
1"
01
12
1=
0<
0?
08
07
0'
#870000
1#
13
1>
#875000
0#
1!
0"
03
02
11
1<
0=
0>
1?
18
17
1'
#880000
0!
1"
01
12
1=
0<
0?
08
07
0'
#885000
1!
0"
11
02
0=
1<
1?
18
17
1'
#890000
0!
1"
01
12
1=
0<
0?
08
07
0'
#895000
1!
0"
1#
11
13
02
0=
1>
1<
1@
19
16
1&
#900000
0!
0#
01
03
0>
0<
0@
09
06
0&
#910000
1!
1#
11
13
1>
1<
1@
19
16
1&
#915000
0!
01
0<
0@
09
06
0&
#920000
0#
03
0>
#925000
1#
1!
13
11
1<
1>
1@
19
16
1&
#930000
1"
12
1=
0@
1B
1;
09
14
06
0&
1$
#935000
0"
0#
0!
03
02
01
0<
0=
0>
0B
0;
04
0$
#940000
1"
1#
13
12
1=
1>
#945000
0"
0#
03
02
0=
0>
#950000
1"
1#
13
12
1=
1>
#955000
0#
03
0>
#960000
0"
02
0=
#965000
1#
13
1>
#970000
1"
12
1=
#975000
0#
1!
03
11
1<
0>
1A
1:
15
1%
#980000
0"
02
0=
1?
0A
0:
18
05
17
1'
0%
#985000
1"
1#
0!
13
12
01
0<
1=
1>
0?
08
07
0'
#990000
0"
02
0=
#995000
1"
12
1=
