isd/aula6/decoderdemo/simulation/qsim/decoderdemo.msim.vcd
$comment
	File created using the following command:
		vcd file decoderdemo.msim.vcd -direction
$end
$date
	Sun Nov 20 14:17:13 2022
$end
$version
	ModelSim Version 2020.1
$end
$timescale
	1ps
$end

$scope module decoderdemo2_vlg_vec_tst $end
$var reg 1 ! e0 $end
$var reg 1 " e1 $end
$var reg 1 # x1 $end
$var reg 1 $ x2 $end
$var wire 1 % y0 $end
$var wire 1 & y1 $end
$var wire 1 ' y2 $end
$var wire 1 ( y3 $end

$scope module i1 $end
$var wire 1 ) gnd $end
$var wire 1 * vcc $end
$var wire 1 + unknown $end
$var tri1 1 , devclrn $end
$var tri1 1 - devpor $end
$var tri1 1 . devoe $end
$var wire 1 / y0~output_o $end
$var wire 1 0 y1~output_o $end
$var wire 1 1 y3~output_o $end
$var wire 1 2 y2~output_o $end
$var wire 1 3 e1~input_o $end
$var wire 1 4 x2~input_o $end
$var wire 1 5 x1~input_o $end
$var wire 1 6 e0~input_o $end
$var wire 1 7 inst|inst~combout $end
$var wire 1 8 inst|inst1~combout $end
$var wire 1 9 inst|inst3~combout $end
$var wire 1 : inst|inst2~combout $end
$upscope $end
$upscope $end
$enddefinitions $end
#0
$dumpvars
0!
1"
1#
0$
0%
0&
1'
0(
0)
1*
x+
1,
1-
1.
0/
00
01
12
13
04
15
06
07
08
09
1:
$end
#10000
0#
1$
05
14
0:
18
10
02
0'
1&
#15000
0$
04
08
17
1/
00
0&
1%
#25000
1$
14
18
07
0/
10
1&
0%
#40000
1#
0$
15
04
1:
08
00
12
1'
0&
#45000
0#
05
0:
17
1/
02
0'
1%
#50000
1#
15
1:
07
0/
12
1'
0%
#55000
0#
05
0:
17
1/
02
0'
1%
#60000
1$
1#
14
15
19
07
0/
11
1(
0%
#65000
0$
04
1:
09
01
12
1'
0(
#75000
0#
1$
05
14
0:
18
10
02
0'
1&
#80000
1#
0$
15
04
1:
08
00
12
1'
0&
#90000
1$
14
0:
19
11
02
0'
1(
#95000
0$
04
1:
09
01
12
1'
0(
#110000
1$
14
0:
19
11
02
0'
1(
#115000
0#
05
09
18
10
01
0(
1&
#120000
0$
04
08
17
1/
00
0&
1%
#125000
1$
14
18
07
0/
10
1&
0%
#130000
0$
04
08
17
1/
00
0&
1%
#135000
1#
1$
15
14
19
07
0/
11
1(
0%
#140000
0#
05
09
18
10
01
0(
1&
#160000
1#
15
19
08
00
11
1(
0&
#165000
0$
0#
04
05
09
17
1/
01
0(
1%
#170000
1$
14
18
07
0/
10
1&
0%
#175000
0$
04
08
17
1/
00
0&
1%
#180000
1$
14
18
07
0/
10
1&
0%
#190000
0$
04
08
17
1/
00
0&
1%
#195000
1$
14
18
07
0/
10
1&
0%
#210000
1#
15
19
08
00
11
1(
0&
#215000
0$
0#
04
05
09
17
1/
01
0(
1%
#220000
1$
14
18
07
0/
10
1&
0%
#225000
0$
04
08
17
1/
00
0&
1%
#230000
1#
1$
15
14
19
07
0/
11
1(
0%
#235000
0#
0$
05
04
09
17
1/
01
0(
1%
#245000
1#
1$
15
14
19
07
0/
11
1(
0%
#250000
0#
05
09
18
10
01
0(
1&
#255000
0$
04
08
17
1/
00
0&
1%
#260000
1#
1$
15
14
19
07
0/
11
1(
0%
#265000
0#
0$
05
04
09
17
1/
01
0(
1%
#270000
1#
15
1:
07
0/
12
1'
0%
#275000
1$
14
0:
19
11
02
0'
1(
#280000
0#
05
09
18
10
01
0(
1&
#295000
1#
15
19
08
00
11
1(
0&
#300000
0#
05
09
18
10
01
0(
1&
#305000
0$
1#
04
15
1:
08
00
12
1'
0&
#315000
1$
0#
14
05
0:
18
10
02
0'
1&
#320000
0$
1#
04
15
1:
08
00
12
1'
0&
#330000
0#
05
0:
17
1/
02
0'
1%
#335000
1$
1#
14
15
19
07
0/
11
1(
0%
#345000
0$
04
1:
09
01
12
1'
0(
#350000
0#
1$
05
14
0:
18
10
02
0'
1&
#355000
1#
15
19
08
00
11
1(
0&
#360000
0$
0#
04
05
09
17
1/
01
0(
1%
#370000
1$
1#
14
15
19
07
0/
11
1(
0%
#375000
0#
05
09
18
10
01
0(
1&
#380000
1#
15
19
08
00
11
1(
0&
#385000
0$
0#
04
05
09
17
1/
01
0(
1%
#390000
1#
15
1:
07
0/
12
1'
0%
#400000
1$
14
0:
19
11
02
0'
1(
#405000
0#
05
09
18
10
01
0(
1&
#410000
0$
1#
04
15
1:
08
00
12
1'
0&
#415000
1$
0#
14
05
0:
18
10
02
0'
1&
#420000
1#
15
19
08
00
11
1(
0&
#425000
0$
0#
04
05
09
17
1/
01
0(
1%
#430000
1$
1#
14
15
19
07
0/
11
1(
0%
#435000
0#
05
09
18
10
01
0(
1&
#445000
0$
04
08
17
1/
00
0&
1%
#450000
1#
15
1:
07
0/
12
1'
0%
#455000
1$
0#
14
05
0:
18
10
02
0'
1&
#470000
0$
04
08
17
1/
00
0&
1%
#475000
1#
15
1:
07
0/
12
1'
0%
#480000
1$
14
0:
19
11
02
0'
1(
#485000
0$
04
1:
09
01
12
1'
0(
#500000
0#
05
0:
17
1/
02
0'
1%
#505000
1$
1#
14
15
19
07
0/
11
1(
0%
#510000
0#
05
09
18
10
01
0(
1&
#525000
0$
1#
04
15
1:
08
00
12
1'
0&
#530000
1$
0#
14
05
0:
18
10
02
0'
1&
#535000
1#
15
19
08
00
11
1(
0&
#550000
0$
0#
04
05
09
17
1/
01
0(
1%
#560000
1$
14
18
07
0/
10
1&
0%
#565000
0$
04
08
17
1/
00
0&
1%
#570000
1#
1$
15
14
19
07
0/
11
1(
0%
#575000
0#
05
09
18
10
01
0(
1&
#580000
0$
1#
04
15
1:
08
00
12
1'
0&
#585000
1$
14
0:
19
11
02
0'
1(
#595000
0#
0$
05
04
09
17
1/
01
0(
1%
#605000
1$
14
18
07
0/
10
1&
0%
#610000
1#
15
19
08
00
11
1(
0&
#615000
0$
0#
04
05
09
17
1/
01
0(
1%
#620000
1$
14
18
07
0/
10
1&
0%
#630000
0$
04
08
17
1/
00
0&
1%
#635000
1#
15
1:
07
0/
12
1'
0%
#645000
1$
0#
14
05
0:
18
10
02
0'
1&
#650000
1#
15
19
08
00
11
1(
0&
#655000
0$
0#
04
05
09
17
1/
01
0(
1%
#660000
1$
1#
14
15
19
07
0/
11
1(
0%
#675000
0$
04
1:
09
01
12
1'
0(
#680000
0#
05
0:
17
1/
02
0'
1%
#685000
1$
1#
14
15
19
07
0/
11
1(
0%
#690000
0#
05
09
18
10
01
0(
1&
#695000
0$
1#
04
15
1:
08
00
12
1'
0&
#700000
1$
0#
14
05
0:
18
10
02
0'
1&
#705000
0$
1#
04
15
1:
08
00
12
1'
0&
#710000
1$
14
0:
19
11
02
0'
1(
#720000
0$
04
1:
09
01
12
1'
0(
#725000
1$
14
0:
19
11
02
0'
1(
#730000
0#
05
09
18
10
01
0(
1&
#735000
1#
15
19
08
00
11
1(
0&
#740000
0$
0#
04
05
09
17
1/
01
0(
1%
#745000
1#
15
1:
07
0/
12
1'
0%
#750000
1$
0#
14
05
0:
18
10
02
0'
1&
#755000
1#
15
19
08
00
11
1(
0&
#760000
0$
04
1:
09
01
12
1'
0(
#770000
1$
14
0:
19
11
02
0'
1(
#775000
0$
04
1:
09
01
12
1'
0(
#780000
1$
14
0:
19
11
02
0'
1(
#785000
0#
0$
05
04
09
17
1/
01
0(
1%
#790000
1$
14
18
07
0/
10
1&
0%
#800000
1#
15
19
08
00
11
1(
0&
#805000
0#
05
09
18
10
01
0(
1&
#810000
0$
1#
04
15
1:
08
00
12
1'
0&
#815000
1$
0#
14
05
0:
18
10
02
0'
1&
#820000
0$
1#
04
15
1:
08
00
12
1'
0&
#825000
1$
0#
14
05
0:
18
10
02
0'
1&
#830000
0$
04
08
17
1/
00
0&
1%
#835000
1#
1$
15
14
19
07
0/
11
1(
0%
#845000
0#
05
09
18
10
01
0(
1&
#850000
0$
1#
04
15
1:
08
00
12
1'
0&
#855000
1$
0#
14
05
0:
18
10
02
0'
1&
#865000
0$
04
08
17
1/
00
0&
1%
#870000
1#
15
1:
07
0/
12
1'
0%
#880000
0#
05
0:
17
1/
02
0'
1%
#885000
1$
14
18
07
0/
10
1&
0%
#890000
1#
15
19
08
00
11
1(
0&
#895000
0$
0#
04
05
09
17
1/
01
0(
1%
#910000
1$
14
18
07
0/
10
1&
0%
#915000
0$
04
08
17
1/
00
0&
1%
#920000
1#
1$
15
14
19
07
0/
11
1(
0%
#925000
0#
05
09
18
10
01
0(
1&
#930000
0$
1#
04
15
1:
08
00
12
1'
0&
#935000
1$
14
0:
19
11
02
0'
1(
#940000
0#
05
09
18
10
01
0(
1&
#945000
0$
1#
04
15
1:
08
00
12
1'
0&
#950000
1$
14
0:
19
11
02
0'
1(
#960000
0$
04
1:
09
01
12
1'
0(
#965000
0#
1$
05
14
0:
18
10
02
0'
1&
#970000
1#
15
19
08
00
11
1(
0&
#975000
0$
04
1:
09
01
12
1'
0(
#985000
0#
05
0:
17
1/
02
0'
1%
#990000
1$
1#
14
15
19
07
0/
11
1(
0%
#995000
0$
0#
04
05
09
17
1/
01
0(
1%
