LSD/P/aula4/FlipFlopD_Demo/simulation/qsim/FlipFlopD_Demo.msim.vcd
$comment
	File created using the following command:
		vcd file FlipFlopD_Demo.msim.vcd -direction
$end
$date
	Mon Mar 13 08:52:42 2023
$end
$version
	ModelSim Version 2020.1
$end
$timescale
	1ps
$end

$scope module flipflopd_vhd_vec_tst $end
$var wire 1 ! clk $end
$var wire 1 " d $end
$var wire 1 # q $end

$scope module i1 $end
$var wire 1 $ gnd $end
$var wire 1 % vcc $end
$var wire 1 & unknown $end
$var wire 1 ' devoe $end
$var wire 1 ( devclrn $end
$var wire 1 ) devpor $end
$var wire 1 * ww_devoe $end
$var wire 1 + ww_devclrn $end
$var wire 1 , ww_devpor $end
$var wire 1 - ww_clk $end
$var wire 1 . ww_d $end
$var wire 1 / ww_q $end
$var wire 1 0 \q~output_o\ $end
$var wire 1 1 \clk~input_o\ $end
$var wire 1 2 \d~input_o\ $end
$var wire 1 3 \q~reg0_q\ $end
$upscope $end
$upscope $end
$enddefinitions $end
#0
$dumpvars
0!
1"
0#
0$
1%
x&
1'
1(
1)
1*
1+
1,
0-
1.
0/
00
01
12
03
$end
#10000
0"
0.
02
#20000
1"
1!
1.
1-
11
12
#30000
0!
0-
01
#35000
1!
0"
1-
0.
02
11
13
10
1/
1#
#40000
0!
0-
01
#45000
1!
1-
11
03
00
0/
0#
#55000
0!
1"
0-
1.
12
01
#60000
1!
1-
11
13
10
1/
1#
#65000
0!
0"
0-
0.
02
01
#70000
1!
1"
1-
1.
12
11
03
00
0/
0#
#80000
0"
0.
02
#85000
1"
1.
12
#90000
0!
0-
01
#95000
1!
0"
1-
0.
02
11
13
10
1/
1#
#100000
1"
1.
12
#105000
0!
0-
01
#110000
1!
1-
11
#120000
0"
0.
02
#125000
1"
0!
1.
0-
01
12
#130000
1!
1-
11
#135000
0!
0-
01
#145000
1!
0"
1-
0.
02
11
#155000
0!
1"
0-
1.
12
01
#160000
1!
1-
11
#165000
0"
0.
02
#170000
1"
1.
12
#180000
0!
0-
01
#185000
1!
1-
11
#200000
0!
0-
01
#205000
1!
1-
11
#210000
0!
0-
01
#215000
0"
0.
02
#225000
1!
1-
11
03
00
0/
0#
#230000
0!
1"
0-
1.
12
01
#240000
0"
0.
02
#245000
1"
1!
1.
1-
11
12
#250000
0"
0.
02
#255000
1"
0!
1.
0-
01
12
#260000
1!
1-
11
13
10
1/
1#
#265000
0!
0-
01
#270000
1!
0"
1-
0.
02
11
#275000
0!
1"
0-
1.
12
01
#290000
1!
1-
11
#300000
0!
0-
01
#305000
0"
0.
02
#315000
1"
1.
12
#330000
0"
1!
0.
1-
11
02
#335000
1"
0!
1.
0-
01
12
#340000
1!
1-
11
#345000
0!
0"
0-
0.
02
01
#350000
1!
1"
1-
1.
12
11
03
00
0/
0#
#355000
0!
0"
0-
0.
02
01
#360000
1!
1-
11
#370000
1"
1.
12
#380000
0!
0-
01
#385000
1!
0"
1-
0.
02
11
13
10
1/
1#
#390000
0!
1"
0-
1.
12
01
#400000
0"
0.
02
#405000
1!
1-
11
03
00
0/
0#
#415000
0!
1"
0-
1.
12
01
#420000
0"
0.
02
#425000
1"
1!
1.
1-
11
12
#430000
0"
0!
0.
0-
01
02
#435000
1"
1.
12
#440000
1!
1-
11
13
10
1/
1#
#445000
0"
0.
02
#455000
1"
0!
1.
0-
01
12
#460000
0"
1!
0.
1-
11
02
#470000
0!
0-
01
#475000
1!
1-
11
03
00
0/
0#
#480000
1"
1.
12
#490000
0!
0-
01
#495000
1!
0"
1-
0.
02
11
13
10
1/
1#
#500000
0!
0-
01
#505000
1!
1"
1-
1.
12
11
03
00
0/
0#
#510000
0"
0.
02
#515000
1"
0!
1.
0-
01
12
#530000
1!
1-
11
13
10
1/
1#
#535000
0"
0.
02
#540000
1"
1.
12
#545000
0!
0-
01
#550000
0"
0.
02
#555000
1"
1!
1.
1-
11
12
03
00
0/
0#
#560000
0!
0-
01
#570000
1!
1-
11
13
10
1/
1#
#575000
0"
0.
02
#580000
1"
0!
1.
0-
01
12
#585000
0"
0.
02
#590000
1"
1.
12
#605000
0"
0.
02
#610000
1"
1.
12
#625000
1!
1-
11
#630000
0"
0.
02
#635000
0!
0-
01
#645000
1!
1-
11
03
00
0/
0#
#650000
0!
0-
01
#655000
1!
1"
1-
1.
12
11
#660000
0"
0.
02
#665000
1"
0!
1.
0-
01
12
#675000
0"
0.
02
#680000
1!
1-
11
#685000
0!
1"
0-
1.
12
01
#690000
1!
1-
11
13
10
1/
1#
#695000
0!
0"
0-
0.
02
01
#700000
1!
1"
1-
1.
12
11
03
00
0/
0#
#705000
0!
0-
01
#710000
1!
1-
11
13
10
1/
1#
#720000
0"
0.
02
#725000
1"
0!
1.
0-
01
12
#730000
0"
1!
0.
1-
11
02
#735000
1"
1.
12
#745000
0"
0!
0.
0-
01
02
#750000
1"
1.
12
#760000
1!
1-
11
#765000
0!
0"
0-
0.
02
01
#770000
1!
1-
11
03
00
0/
0#
#775000
0!
1"
0-
1.
12
01
#785000
1!
0"
1-
0.
02
11
13
10
1/
1#
#790000
0!
1"
0-
1.
12
01
#800000
1!
1-
11
#805000
0!
0"
0-
0.
02
01
#810000
1!
1"
1-
1.
12
11
03
00
0/
0#
#815000
0"
0.
02
#825000
1"
0!
1.
0-
01
12
#830000
0"
0.
02
#845000
1"
1.
12
#850000
1!
1-
11
13
10
1/
1#
#855000
0!
0-
01
#870000
1!
0"
1-
0.
02
11
#875000
1"
1.
12
#885000
0"
0!
0.
0-
01
02
#890000
1"
1!
1.
1-
11
12
03
00
0/
0#
#895000
0!
0-
01
#900000
1!
1-
11
13
10
1/
1#
#905000
0!
0"
0-
0.
02
01
#910000
1!
1"
1-
1.
12
11
03
00
0/
0#
#915000
0!
0"
0-
0.
02
01
#925000
1"
1.
12
#935000
0"
0.
02
#940000
1"
1!
1.
1-
11
12
#945000
0"
0.
02
#950000
1"
0!
1.
0-
01
12
#955000
0"
1!
0.
1-
11
02
13
10
1/
1#
#960000
1"
1.
12
#965000
0"
0.
02
#970000
1"
1.
12
#975000
0"
0.
02
#980000
1"
0!
1.
0-
01
12
#985000
1!
1-
11
#990000
0"
0.
02
#995000
1"
0!
1.
0-
01
12
