LSD/P/aula1/test1/simulation/qsim/GateDemo.msim.vcd
$comment
	File created using the following command:
		vcd file GateDemo.msim.vcd -direction
$end
$date
	Thu Feb 23 10:09:28 2023
$end
$version
	ModelSim Version 2020.1
$end
$timescale
	1ps
$end

$scope module GateDemo_vlg_vec_tst $end
$var reg 2 ! SW [1:0] $end
$var wire 1 " LEDR [0] $end

$scope module i1 $end
$var wire 1 # gnd $end
$var wire 1 $ vcc $end
$var wire 1 % unknown $end
$var tri1 1 & devclrn $end
$var tri1 1 ' devpor $end
$var tri1 1 ( devoe $end
$var wire 1 ) LEDR[0]~output_o $end
$var wire 1 * SW[1]~input_o $end
$var wire 1 + SW[0]~input_o $end
$var wire 1 , inst~combout $end
$upscope $end
$upscope $end
$enddefinitions $end
#0
$dumpvars
b10 !
0"
0#
1$
x%
1&
1'
1(
0)
1*
0+
0,
$end
#10000
b0 !
0*
#15000
b1 !
b11 !
1+
1*
1,
1)
1"
#20000
b10 !
0+
0,
0)
0"
#25000
b0 !
0*
#30000
b1 !
1+
#35000
b0 !
0+
#40000
b10 !
1*
#45000
b11 !
b1 !
1+
0*
#50000
b0 !
b10 !
0+
1*
#55000
b0 !
0*
#60000
b10 !
1*
#65000
b11 !
b1 !
1+
0*
#70000
b11 !
1*
1,
1)
1"
#80000
b10 !
0+
0,
0)
0"
#85000
b11 !
1+
1,
1)
1"
#95000
b1 !
0*
0,
0)
0"
#100000
b0 !
b10 !
0+
1*
#115000
b0 !
0*
#125000
b1 !
1+
#130000
b0 !
0+
#135000
b1 !
1+
#140000
b11 !
1*
1,
1)
1"
#150000
b10 !
0+
0,
0)
0"
#160000
b11 !
1+
1,
1)
1"
#165000
b1 !
b0 !
0+
0*
0,
0)
0"
#170000
b10 !
b11 !
1+
1*
1,
1)
1"
#175000
b10 !
0+
0,
0)
0"
#180000
b11 !
1+
1,
1)
1"
#190000
b1 !
0*
0,
0)
0"
#200000
b0 !
0+
#205000
b10 !
1*
#210000
b0 !
0*
#215000
b1 !
b11 !
1+
1*
1,
1)
1"
#220000
b1 !
0*
0,
0)
0"
#225000
b0 !
0+
#235000
b10 !
b11 !
1+
1*
1,
1)
1"
#240000
b1 !
b0 !
0+
0*
0,
0)
0"
#250000
b10 !
1*
#255000
b0 !
0*
#260000
b1 !
1+
#270000
b11 !
1*
1,
1)
1"
#280000
b10 !
b0 !
0+
0*
0,
0)
0"
#290000
b1 !
1+
#295000
b11 !
b10 !
0+
1*
#300000
b0 !
0*
#305000
b1 !
b11 !
1+
1*
1,
1)
1"
#310000
b1 !
0*
0,
0)
0"
#315000
b11 !
1*
1,
1)
1"
#320000
b10 !
0+
0,
0)
0"
#325000
b11 !
1+
1,
1)
1"
#330000
b1 !
0*
0,
0)
0"
#335000
b0 !
0+
#345000
b10 !
1*
#350000
b11 !
b1 !
1+
0*
#355000
b0 !
b10 !
0+
1*
#365000
b11 !
1+
1,
1)
1"
#370000
b10 !
0+
0,
0)
0"
#375000
b0 !
0*
#380000
b1 !
b11 !
1+
1*
1,
1)
1"
#400000
b1 !
0*
0,
0)
0"
#410000
b0 !
b10 !
0+
1*
#415000
b11 !
b1 !
1+
0*
#425000
b11 !
1*
1,
1)
1"
#430000
b1 !
0*
0,
0)
0"
#435000
b0 !
b10 !
0+
1*
#445000
b0 !
0*
#450000
b1 !
1+
#455000
b11 !
b10 !
0+
1*
#460000
b0 !
b1 !
1+
0*
#465000
b0 !
0+
#475000
b10 !
1*
#485000
b11 !
b1 !
1+
0*
#490000
b0 !
b10 !
0+
1*
#495000
b11 !
1+
1,
1)
1"
#500000
b1 !
0*
0,
0)
0"
#510000
b0 !
b10 !
0+
1*
#515000
b11 !
b1 !
1+
0*
#530000
b11 !
1*
1,
1)
1"
#540000
b10 !
0+
0,
0)
0"
#545000
b11 !
1+
1,
1)
1"
#550000
b10 !
0+
0,
0)
0"
#555000
b11 !
1+
1,
1)
1"
#570000
b1 !
b0 !
0+
0*
0,
0)
0"
#580000
b10 !
1*
#585000
b11 !
1+
1,
1)
1"
#605000
b10 !
0+
0,
0)
0"
#610000
b11 !
1+
1,
1)
1"
#615000
b1 !
0*
0,
0)
0"
#620000
b0 !
b10 !
0+
1*
#625000
b11 !
1+
1,
1)
1"
#630000
b1 !
b0 !
0+
0*
0,
0)
0"
#645000
b1 !
1+
#650000
b11 !
b10 !
0+
1*
#655000
b11 !
1+
1,
1)
1"
#665000
b1 !
0*
0,
0)
0"
#670000
b11 !
1*
1,
1)
1"
#675000
b10 !
b0 !
0+
0*
0,
0)
0"
#690000
b10 !
1*
#695000
b0 !
0*
#700000
b1 !
1+
#705000
b11 !
1*
1,
1)
1"
#710000
b1 !
0*
0,
0)
0"
#715000
b0 !
0+
#725000
b1 !
1+
#730000
b0 !
0+
#735000
b1 !
1+
#745000
b11 !
1*
1,
1)
1"
#750000
b10 !
0+
0,
0)
0"
#755000
b0 !
0*
#765000
b1 !
b11 !
1+
1*
1,
1)
1"
#770000
b1 !
0*
0,
0)
0"
#775000
b11 !
1*
1,
1)
1"
#780000
b10 !
0+
0,
0)
0"
#785000
b0 !
0*
#790000
b1 !
1+
#795000
b11 !
1*
1,
1)
1"
#800000
b10 !
b0 !
0+
0*
0,
0)
0"
#805000
b10 !
1*
#810000
b11 !
1+
1,
1)
1"
#815000
b1 !
b0 !
0+
0*
0,
0)
0"
#830000
b10 !
b11 !
1+
1*
1,
1)
1"
#840000
b1 !
b0 !
0+
0*
0,
0)
0"
#845000
b1 !
1+
#850000
b11 !
1*
1,
1)
1"
#860000
b10 !
b0 !
0+
0*
0,
0)
0"
#865000
b10 !
1*
#885000
b11 !
1+
1,
1)
1"
#895000
b1 !
b0 !
0+
0*
0,
0)
0"
#900000
b10 !
1*
#905000
b11 !
1+
1,
1)
1"
#910000
b1 !
0*
0,
0)
0"
#915000
b11 !
1*
1,
1)
1"
#925000
b10 !
b0 !
0+
0*
0,
0)
0"
#930000
b1 !
1+
#935000
b11 !
1*
1,
1)
1"
#940000
b1 !
0*
0,
0)
0"
#945000
b0 !
b10 !
0+
1*
#950000
b11 !
b1 !
1+
0*
#955000
b0 !
0+
#960000
b10 !
1*
#965000
b11 !
1+
1,
1)
1"
#970000
b1 !
b0 !
0+
0*
0,
0)
0"
#975000
b10 !
1*
#985000
b11 !
b1 !
1+
0*
#990000
b0 !
0+
#995000
b10 !
1*
