LSD/P/aula4/Counter_Demo/simulation/qsim/Counter_Demo.msim.vcd
$comment
	File created using the following command:
		vcd file Counter_Demo.msim.vcd -direction
$end
$date
	Mon Mar 13 09:55:46 2023
$end
$version
	ModelSim Version 2020.1
$end
$timescale
	1ps
$end

$scope module counterdown4_vhd_vec_tst $end
$var wire 1 ! clk $end
$var wire 1 " count [3] $end
$var wire 1 # count [2] $end
$var wire 1 $ count [1] $end
$var wire 1 % count [0] $end

$scope module i1 $end
$var wire 1 & gnd $end
$var wire 1 ' vcc $end
$var wire 1 ( unknown $end
$var wire 1 ) devoe $end
$var wire 1 * devclrn $end
$var wire 1 + devpor $end
$var wire 1 , ww_devoe $end
$var wire 1 - ww_devclrn $end
$var wire 1 . ww_devpor $end
$var wire 1 / ww_clk $end
$var wire 1 0 ww_count [3] $end
$var wire 1 1 ww_count [2] $end
$var wire 1 2 ww_count [1] $end
$var wire 1 3 ww_count [0] $end
$var wire 1 4 \count[0]~output_o\ $end
$var wire 1 5 \count[1]~output_o\ $end
$var wire 1 6 \count[2]~output_o\ $end
$var wire 1 7 \count[3]~output_o\ $end
$var wire 1 8 \clk~input_o\ $end
$var wire 1 9 \s_count[0]~0_combout\ $end
$var wire 1 : \Add0~0_combout\ $end
$var wire 1 ; \Add0~1_combout\ $end
$var wire 1 < \Add0~2_combout\ $end
$var wire 1 = s_count [3] $end
$var wire 1 > s_count [2] $end
$var wire 1 ? s_count [1] $end
$var wire 1 @ s_count [0] $end
$upscope $end
$upscope $end
$enddefinitions $end
#0
$dumpvars
0!
0&
1'
x(
1)
1*
1+
1,
1-
1.
0/
04
05
06
07
08
19
1:
1;
1<
00
01
02
03
0=
0>
0?
0@
0"
0#
0$
0%
$end
#10000
1!
1/
18
1@
1?
1>
1=
09
17
16
15
14
10
11
12
13
1%
1$
1#
1"
#20000
0!
0/
08
#30000
1!
1/
18
0@
19
0:
04
03
0%
#40000
0!
0/
08
#50000
1!
1/
18
1@
0?
09
05
14
02
13
1%
0$
#60000
0!
0/
08
#70000
1!
1/
18
0@
19
1:
0;
04
03
0%
#80000
0!
0/
08
#90000
1!
1/
18
1@
1?
0>
09
06
15
14
01
12
13
1%
1$
0#
#100000
0!
0/
08
#110000
1!
1/
18
0@
19
0:
04
03
0%
#120000
0!
0/
08
#130000
1!
1/
18
1@
0?
09
05
14
02
13
1%
0$
#140000
0!
0/
08
#150000
1!
1/
18
0@
19
1:
1;
0<
04
03
0%
#160000
0!
0/
08
#170000
1!
1/
18
1@
1?
1>
0=
09
07
16
15
14
00
11
12
13
1%
1$
1#
0"
#180000
0!
0/
08
#190000
1!
1/
18
0@
19
0:
04
03
0%
#200000
0!
0/
08
#210000
1!
1/
18
1@
0?
09
05
14
02
13
1%
0$
#220000
0!
0/
08
#230000
1!
1/
18
0@
19
1:
0;
04
03
0%
#240000
0!
0/
08
#250000
1!
1/
18
1@
1?
0>
09
06
15
14
01
12
13
1%
1$
0#
#260000
0!
0/
08
#270000
1!
1/
18
0@
19
0:
04
03
0%
#280000
0!
0/
08
#290000
1!
1/
18
1@
0?
09
05
14
02
13
1%
0$
#300000
0!
0/
08
#310000
1!
1/
18
0@
19
1:
1;
1<
04
03
0%
#320000
0!
0/
08
#330000
1!
1/
18
1@
1?
1>
1=
09
17
16
15
14
10
11
12
13
1%
1$
1#
1"
#340000
0!
0/
08
#350000
1!
1/
18
0@
19
0:
04
03
0%
#360000
0!
0/
08
#370000
1!
1/
18
1@
0?
09
05
14
02
13
1%
0$
#380000
0!
0/
08
#390000
1!
1/
18
0@
19
1:
0;
04
03
0%
#400000
0!
0/
08
#410000
1!
1/
18
1@
1?
0>
09
06
15
14
01
12
13
1%
1$
0#
#420000
0!
0/
08
#430000
1!
1/
18
0@
19
0:
04
03
0%
#440000
0!
0/
08
#450000
1!
1/
18
1@
0?
09
05
14
02
13
1%
0$
#460000
0!
0/
08
#470000
1!
1/
18
0@
19
1:
1;
0<
04
03
0%
#480000
0!
0/
08
#490000
1!
1/
18
1@
1?
1>
0=
09
07
16
15
14
00
11
12
13
1%
1$
1#
0"
#500000
0!
0/
08
#510000
1!
1/
18
0@
19
0:
04
03
0%
#520000
0!
0/
08
#530000
1!
1/
18
1@
0?
09
05
14
02
13
1%
0$
#540000
0!
0/
08
#550000
1!
1/
18
0@
19
1:
0;
04
03
0%
#560000
0!
0/
08
#570000
1!
1/
18
1@
1?
0>
09
06
15
14
01
12
13
1%
1$
0#
#580000
0!
0/
08
#590000
1!
1/
18
0@
19
0:
04
03
0%
#600000
0!
0/
08
#610000
1!
1/
18
1@
0?
09
05
14
02
13
1%
0$
#620000
0!
0/
08
#630000
1!
1/
18
0@
19
1:
1;
1<
04
03
0%
#640000
0!
0/
08
#650000
1!
1/
18
1@
1?
1>
1=
09
17
16
15
14
10
11
12
13
1%
1$
1#
1"
#660000
0!
0/
08
#670000
1!
1/
18
0@
19
0:
04
03
0%
#680000
0!
0/
08
#690000
1!
1/
18
1@
0?
09
05
14
02
13
1%
0$
#700000
0!
0/
08
#710000
1!
1/
18
0@
19
1:
0;
04
03
0%
#720000
0!
0/
08
#730000
1!
1/
18
1@
1?
0>
09
06
15
14
01
12
13
1%
1$
0#
#740000
0!
0/
08
#750000
1!
1/
18
0@
19
0:
04
03
0%
#760000
0!
0/
08
#770000
1!
1/
18
1@
0?
09
05
14
02
13
1%
0$
#780000
0!
0/
08
#790000
1!
1/
18
0@
19
1:
1;
0<
04
03
0%
#800000
0!
0/
08
#810000
1!
1/
18
1@
1?
1>
0=
09
07
16
15
14
00
11
12
13
1%
1$
1#
0"
#820000
0!
0/
08
#830000
1!
1/
18
0@
19
0:
04
03
0%
#840000
0!
0/
08
#850000
1!
1/
18
1@
0?
09
05
14
02
13
1%
0$
#860000
0!
0/
08
#870000
1!
1/
18
0@
19
1:
0;
04
03
0%
#880000
0!
0/
08
#890000
1!
1/
18
1@
1?
0>
09
06
15
14
01
12
13
1%
1$
0#
#900000
0!
0/
08
#910000
1!
1/
18
0@
19
0:
04
03
0%
#920000
0!
0/
08
#930000
1!
1/
18
1@
0?
09
05
14
02
13
1%
0$
#940000
0!
0/
08
#950000
1!
1/
18
0@
19
1:
1;
1<
04
03
0%
#960000
0!
0/
08
#970000
1!
1/
18
1@
1?
1>
1=
09
17
16
15
14
10
11
12
13
1%
1$
1#
1"
#980000
0!
0/
08
#990000
1!
1/
18
0@
19
0:
04
03
0%
