LSD/P/aula4/Register_Demo/simulation/qsim/Register_Demo.msim.vcd
$comment
	File created using the following command:
		vcd file Register_Demo.msim.vcd -direction
$end
$date
	Mon Mar 13 09:46:25 2023
$end
$version
	ModelSim Version 2020.1
$end
$timescale
	1ps
$end

$scope module register_demo_vhd_vec_tst $end
$var wire 1 ! clk $end
$var wire 1 " d [7] $end
$var wire 1 # d [6] $end
$var wire 1 $ d [5] $end
$var wire 1 % d [4] $end
$var wire 1 & d [3] $end
$var wire 1 ' d [2] $end
$var wire 1 ( d [1] $end
$var wire 1 ) d [0] $end
$var wire 1 * q [7] $end
$var wire 1 + q [6] $end
$var wire 1 , q [5] $end
$var wire 1 - q [4] $end
$var wire 1 . q [3] $end
$var wire 1 / q [2] $end
$var wire 1 0 q [1] $end
$var wire 1 1 q [0] $end
$var wire 1 2 reset $end
$var wire 1 3 set $end

$scope module i1 $end
$var wire 1 4 gnd $end
$var wire 1 5 vcc $end
$var wire 1 6 unknown $end
$var wire 1 7 devoe $end
$var wire 1 8 devclrn $end
$var wire 1 9 devpor $end
$var wire 1 : ww_devoe $end
$var wire 1 ; ww_devclrn $end
$var wire 1 < ww_devpor $end
$var wire 1 = ww_clk $end
$var wire 1 > ww_d [7] $end
$var wire 1 ? ww_d [6] $end
$var wire 1 @ ww_d [5] $end
$var wire 1 A ww_d [4] $end
$var wire 1 B ww_d [3] $end
$var wire 1 C ww_d [2] $end
$var wire 1 D ww_d [1] $end
$var wire 1 E ww_d [0] $end
$var wire 1 F ww_set $end
$var wire 1 G ww_reset $end
$var wire 1 H ww_q [7] $end
$var wire 1 I ww_q [6] $end
$var wire 1 J ww_q [5] $end
$var wire 1 K ww_q [4] $end
$var wire 1 L ww_q [3] $end
$var wire 1 M ww_q [2] $end
$var wire 1 N ww_q [1] $end
$var wire 1 O ww_q [0] $end
$var wire 1 P \q[0]~output_o\ $end
$var wire 1 Q \q[1]~output_o\ $end
$var wire 1 R \q[2]~output_o\ $end
$var wire 1 S \q[3]~output_o\ $end
$var wire 1 T \q[4]~output_o\ $end
$var wire 1 U \q[5]~output_o\ $end
$var wire 1 V \q[6]~output_o\ $end
$var wire 1 W \q[7]~output_o\ $end
$var wire 1 X \clk~input_o\ $end
$var wire 1 Y \d[0]~input_o\ $end
$var wire 1 Z \reset~input_o\ $end
$var wire 1 [ \set~input_o\ $end
$var wire 1 \ \q[0]~reg0_q\ $end
$var wire 1 ] \d[1]~input_o\ $end
$var wire 1 ^ \q[1]~reg0_q\ $end
$var wire 1 _ \d[2]~input_o\ $end
$var wire 1 ` \q[2]~reg0_q\ $end
$var wire 1 a \d[3]~input_o\ $end
$var wire 1 b \q[3]~reg0_q\ $end
$var wire 1 c \d[4]~input_o\ $end
$var wire 1 d \q[4]~reg0_q\ $end
$var wire 1 e \d[5]~input_o\ $end
$var wire 1 f \q[5]~reg0_q\ $end
$var wire 1 g \d[6]~input_o\ $end
$var wire 1 h \q[6]~reg0_q\ $end
$var wire 1 i \d[7]~input_o\ $end
$var wire 1 j \q[7]~reg0_q\ $end
$var wire 1 k \ALT_INV_reset~input_o\ $end
$upscope $end
$upscope $end
$enddefinitions $end
#0
$dumpvars
0!
02
13
04
15
x6
17
18
19
1:
1;
1<
0=
1F
0G
0P
0Q
0R
0S
0T
0U
0V
0W
0X
0Y
0Z
1[
0\
1]
0^
0_
0`
1a
0b
1c
0d
0e
0f
1g
0h
0i
0j
1k
0"
1#
0$
1%
1&
0'
1(
0)
0>
1?
0@
1A
1B
0C
1D
0E
0H
0I
0J
0K
0L
0M
0N
0O
0*
0+
0,
0-
0.
0/
00
01
$end
#5000
1"
0#
0&
1'
0(
0D
1C
0B
0?
1>
1i
0g
0a
1_
0]
#10000
1(
1!
0%
1D
0A
1=
1X
0c
1]
1`
1d
1j
1W
1T
1R
1H
1K
1M
1/
1-
1*
#15000
1%
0"
0'
1)
1E
0C
1A
0>
0i
1c
0_
1Y
#20000
0!
1&
1$
0=
1B
1@
1e
1a
0X
#25000
0&
1"
1'
0)
0E
1C
0B
1>
1i
0a
1_
0Y
#30000
0'
1)
1!
0%
0(
1#
1E
0D
0C
0A
1?
1=
1X
1g
0c
0_
0]
1Y
1^
1f
1U
1Q
1J
1N
10
1,
#35000
0)
1(
0"
0$
0E
1D
0@
0>
0i
0e
1]
0Y
#40000
0(
1"
0!
1%
0#
1&
0D
1B
1A
0?
1>
0=
0X
1i
0g
1c
1a
0]
#45000
1(
0"
1#
0&
1)
1E
1D
0B
1?
0>
0i
1g
0a
1]
1Y
#50000
1&
0)
1!
0%
0E
1B
0A
1=
1X
0c
1a
0Y
1\
0`
0f
1h
0j
0W
1V
0U
0R
1P
0H
1I
0J
0M
1O
11
0/
0,
1+
0*
#55000
0&
1%
0#
1$
1'
1C
0B
1A
1@
0?
0g
1e
1c
0a
1_
#60000
1&
0%
1)
0!
1E
1B
0A
0=
0X
0c
1a
1Y
#65000
1%
0(
0D
1A
1c
0]
#70000
0%
1(
0&
0)
1!
1#
0$
1"
0E
1D
0B
0A
0@
1?
1>
1=
1X
1i
1g
0e
0c
0a
1]
0Y
0^
1`
1b
1f
0h
0V
1U
1S
1R
0Q
0I
1J
1L
1M
0N
00
1/
1.
1,
0+
#75000
0'
0C
0_
#80000
1%
0(
1&
1)
0!
1E
0D
1B
1A
0=
0X
1c
1a
0]
1Y
#85000
0%
0)
1'
1$
0"
0E
1C
0A
1@
0>
0i
1e
0c
1_
0Y
#90000
1%
0'
0$
1"
0&
1!
0#
0C
0B
1A
0@
0?
1>
1=
1X
1i
0g
0e
1c
0a
0_
0\
0d
1h
1V
0T
0P
1I
0K
0O
01
0-
1+
#95000
0%
1'
1)
1E
1C
0A
0c
1_
1Y
#100000
1%
0'
0!
1#
0C
1A
1?
0=
0X
1g
1c
0_
#105000
1&
1(
1D
1B
1a
1]
#110000
1'
1!
0#
0)
1$
0E
1C
1@
0?
1=
1X
0g
1e
1_
0Y
1\
1^
0`
1d
0f
1j
1W
0U
1T
0R
1Q
1P
1H
0J
1K
0M
1N
1O
11
10
0/
1-
0,
1*
#115000
0'
1#
0&
0C
0B
1?
1g
0a
0_
#120000
0#
1&
0!
1)
0$
0%
0"
1E
1B
0A
0@
0?
0>
0=
0X
0i
0g
0e
0c
1a
1Y
#125000
1#
0)
1$
1%
1"
0E
1A
1@
1?
1>
1i
1g
1e
1c
0Y
#130000
0#
0%
1!
0A
0?
1=
1X
0g
0c
0\
1f
1U
0P
1J
0O
01
1,
#135000
1#
0"
1'
1C
1?
0>
0i
1g
1_
#140000
0#
0!
1)
0&
1E
0B
0?
0=
0X
0g
0a
1Y
#145000
1&
1"
1%
0(
0D
1B
1A
1>
1i
1c
1a
0]
#150000
0&
0%
1#
1!
0)
0'
0E
0C
0B
0A
1?
1=
1X
1g
0c
0a
0_
0Y
1\
0^
1`
0h
0V
1R
0Q
1P
0I
1M
0N
1O
11
00
1/
0+
#155000
1%
1'
1(
0$
1D
1C
1A
0@
0e
1c
1_
1]
#160000
1$
0!
1)
0"
1E
1@
0>
0=
0X
0i
1e
1Y
#165000
0)
0'
1&
0#
0E
0C
1B
0?
0g
1a
0_
0Y
#170000
1)
0&
1#
0$
1!
1E
0B
0@
1?
1=
1X
1g
0e
0a
1Y
0\
1^
0`
0j
0W
0R
1Q
0P
0H
0M
1N
0O
01
10
0/
0*
#175000
0)
0%
0(
0E
0D
0A
0c
0]
0Y
#180000
1%
0!
1'
1"
1C
1A
1>
0=
0X
1i
1c
1_
#185000
0%
0"
1)
0#
1$
1E
0A
1@
0?
0>
0i
0g
1e
0c
1Y
#190000
1%
0)
1!
0'
1(
1&
0E
1D
0C
1B
1A
1=
1X
1c
1a
0_
1]
0Y
1\
0^
1`
0b
0d
0T
0S
1R
0Q
1P
0K
0L
1M
0N
1O
11
00
1/
0.
0-
#195000
1'
0&
1#
1C
0B
1?
1g
0a
1_
#200000
0'
0%
0!
0(
1"
0D
0C
0A
1>
0=
0X
1i
0c
0_
0]
#205000
1%
1(
0#
1)
0$
1E
1D
1A
0@
0?
0g
0e
1c
1]
1Y
#210000
0%
0(
1$
1'
1!
1&
0D
1C
1B
0A
1@
1=
1X
1e
0c
1a
1_
0]
1^
0`
1d
0f
1j
1W
0U
1T
0R
1Q
1H
0J
1K
0M
1N
10
0/
1-
0,
1*
#215000
1%
0&
1#
0)
0"
0E
0B
1A
1?
0>
0i
1g
1c
0a
0Y
#220000
0$
0'
0!
0C
0@
0=
0X
0e
0_
#225000
1$
1'
0%
1)
1(
1E
1D
1C
0A
1@
1e
0c
1_
1]
1Y
#230000
0$
0'
0(
1!
0#
1"
0D
0C
0@
0?
1>
1=
1X
1i
0g
0e
0_
0]
1`
0d
1f
1h
0j
0W
1V
1U
0T
1R
0H
1I
1J
0K
1M
1/
0-
1,
1+
0*
#235000
1$
1'
1#
0"
1%
0)
0E
1C
1A
1@
1?
0>
0i
1g
1e
1c
1_
0Y
#240000
0'
1"
0%
1)
0!
1&
1E
0C
1B
0A
1>
0=
0X
1i
0c
1a
0_
1Y
#245000
0"
0)
0E
0>
0i
0Y
#250000
1"
1)
1'
1!
0&
0$
1(
1E
1D
1C
0B
0@
1>
1=
1X
1i
0e
0a
1_
1]
1Y
0\
0^
0`
1b
1S
0R
0Q
0P
1L
0M
0N
0O
01
00
0/
1.
#255000
0)
1&
1$
0(
1%
0#
0E
0D
1B
1A
1@
0?
0g
1e
1c
1a
0]
0Y
#260000
0$
1(
0!
1D
0@
0=
0X
0e
1]
#265000
1$
0&
0%
0"
0B
0A
1@
0>
0i
1e
0c
0a
#270000
0$
1&
1"
1!
1#
1B
0@
1?
1>
1=
1X
1i
1g
0e
1a
1^
1`
0b
0h
0V
0S
1R
1Q
0I
0L
1M
1N
10
1/
0.
0+
#275000
0#
1%
1)
0'
1E
0C
1A
0?
0g
1c
0_
1Y
#280000
1#
0)
1'
0!
0E
1C
1?
0=
0X
1g
1_
0Y
#285000
1)
0%
1$
0&
0"
0(
1E
0D
0B
0A
1@
0>
0i
1e
0c
0a
0]
1Y
#290000
0)
1%
0$
1&
1"
1(
0#
1!
0E
1D
1B
1A
0@
0?
1>
1=
1X
1i
0g
0e
1c
1a
1]
0Y
1\
0^
1h
1V
0Q
1P
1I
0N
1O
11
00
1+
#295000
1)
0%
0&
1E
0B
0A
0c
0a
1Y
#300000
0)
1%
1&
1$
0!
0'
0E
0C
1B
1A
1@
0=
0X
1e
1c
1a
0_
0Y
#305000
0%
0$
0"
1#
0A
0@
1?
0>
0i
1g
0e
0c
#310000
1"
1!
1>
1=
1X
1i
0\
1^
0`
1b
0f
0U
1S
0R
1Q
0P
0J
1L
0M
1N
0O
01
10
0/
1.
0,
#315000
0"
1%
1)
0&
0(
1E
0D
0B
1A
0>
0i
1c
0a
0]
1Y
#320000
1"
0)
0!
1'
0E
1C
1>
0=
0X
1i
1_
0Y
#325000
0'
0%
1(
1D
0C
0A
0c
0_
1]
#330000
1%
0(
0"
1)
1!
1&
1$
1E
0D
1B
1A
1@
0>
1=
1X
0i
1e
1c
1a
0]
1Y
0b
1j
1W
0S
1H
0L
0.
1*
#335000
1(
0&
0$
0#
1D
0B
0@
0?
0g
0e
0a
1]
#340000
1&
1$
0%
1"
0!
1'
1C
1B
0A
1@
1>
0=
0X
1i
1e
0c
1a
1_
#345000
1%
0"
0'
0C
1A
0>
0i
1c
0_
#350000
1"
1!
0)
0E
1>
1=
1X
1i
0Y
1\
1b
1d
1f
0h
0j
0W
0V
1U
1T
1S
1P
0H
0I
1J
1K
1L
1O
11
1.
1-
1,
0+
0*
#355000
0%
1'
0$
1C
0A
0@
0e
0c
1_
#360000
0'
1$
0!
1)
1E
0C
1@
0=
0X
1e
0_
1Y
#365000
0$
1%
0"
1A
0@
0>
0i
0e
1c
#370000
1$
0%
1"
1'
1!
0(
0D
1C
0A
1@
1>
1=
1X
1i
1e
0c
1_
0]
0f
0U
0J
0,
#375000
0$
0)
0E
0@
0e
0Y
#380000
1$
1)
0"
0!
1(
0&
1E
1D
0B
1@
0>
0=
0X
0i
1e
0a
1]
1Y
#385000
0$
0)
0(
1&
1%
0'
0E
0D
0C
1B
1A
0@
0e
1c
1a
0_
0]
0Y
#390000
1$
1(
0&
1!
1D
0B
1@
1=
1X
1e
0a
1]
0\
0^
0Q
0P
0N
0O
01
00
#395000
0(
1&
1)
0%
1E
0D
1B
0A
0c
1a
0]
1Y
#400000
1(
0)
1%
0!
1'
0E
1D
1C
1A
0=
0X
1c
1_
1]
0Y
#405000
0'
0&
0$
0C
0B
0@
0e
0a
0_
#410000
1)
1!
1#
1E
1?
1=
1X
1g
1Y
1^
0b
0S
1Q
0L
1N
10
0.
#415000
0)
0#
1'
0E
1C
0?
0g
1_
0Y
#420000
1#
0'
0!
1$
0C
1@
1?
0=
0X
1g
1e
0_
#425000
0$
1)
0%
1E
0A
0@
0e
0c
1Y
#430000
0)
1%
1'
1!
0E
1C
1A
1=
1X
1c
1_
0Y
1\
0d
1h
1V
0T
1P
1I
0K
1O
11
0-
1+
#435000
0#
0(
1"
0D
0?
1>
1i
0g
0]
#440000
1(
0"
1)
0!
1$
1E
1D
1@
0>
0=
0X
0i
1e
1]
1Y
#445000
0(
1"
0%
0'
1&
0D
0C
1B
0A
1>
1i
0c
1a
0_
0]
#450000
0"
1%
1'
1!
0$
1C
1A
0@
0>
1=
1X
0i
0e
1c
1_
0^
1b
1f
0h
1j
1W
0V
1U
1S
0Q
1H
0I
1J
1L
0N
00
1.
1,
0+
1*
#455000
1(
0)
1#
0E
1D
1?
1g
1]
0Y
#460000
1)
0'
0!
1$
0&
1E
0C
0B
1@
0=
0X
1e
0a
0_
1Y
#465000
1'
0%
1C
0A
0c
1_
#470000
0'
0)
1!
1&
0#
1"
0E
0C
1B
0?
1>
1=
1X
1i
0g
1a
0_
0Y
1^
1`
0b
1h
0j
0W
1V
0S
1R
1Q
0H
1I
0L
1M
1N
10
1/
0.
1+
0*
#475000
0&
1%
0$
0(
0D
0B
1A
0@
0e
1c
0a
0]
#480000
1&
1(
1'
0!
1D
1C
1B
0=
0X
1a
1_
1]
#485000
0&
0%
1$
1#
0"
0B
0A
1@
1?
0>
0i
1g
1e
0c
0a
#490000
1%
0$
0#
1"
0(
1!
0D
1A
0@
0?
1>
1=
1X
1i
0g
0e
1c
0]
0\
0P
0O
01
#495000
1$
1&
1)
1E
1B
1@
1e
1a
1Y
#500000
0&
0)
0%
0"
0!
0E
0B
0A
0>
0=
0X
0i
0c
0a
0Y
#505000
1&
1#
1(
1D
1B
1?
1g
1a
1]
#510000
1)
1%
1!
0$
1E
1A
0@
1=
1X
0e
1c
1Y
1b
1S
1L
1.
#515000
0)
0&
1"
0E
0B
1>
1i
0a
0Y
#520000
1)
0"
0!
0#
1E
0?
0>
0=
0X
0i
0g
1Y
#525000
1#
0(
0'
0D
0C
1?
1g
0_
0]
#530000
0#
1(
1!
1&
0%
1$
1D
1B
0A
1@
0?
1=
1X
0g
1e
0c
1a
1]
1\
0^
0`
0b
1d
0f
0U
1T
0S
0R
0Q
1P
0J
1K
0L
0M
0N
1O
11
00
0/
0.
1-
0,
#535000
0&
1"
0B
1>
1i
0a
#540000
1&
0"
0(
0!
0)
0E
0D
1B
0>
0=
0X
0i
1a
0]
0Y
#545000
0&
1"
1(
1#
1%
0$
1'
1D
1C
0B
1A
0@
1?
1>
1i
1g
0e
1c
0a
1_
1]
#550000
0#
0%
1$
1!
0A
1@
0?
1=
1X
0g
1e
0c
0\
1^
1`
1j
1W
1R
1Q
0P
1H
1M
1N
0O
01
10
1/
1*
#555000
1#
0$
1&
0(
0'
1)
1E
0D
0C
1B
0@
1?
1g
0e
1a
0_
0]
1Y
#560000
1$
1(
1'
1%
0!
0"
1D
1C
1A
1@
0>
0=
0X
0i
1e
1c
1_
1]
#565000
0$
0#
0&
0)
0E
0B
0@
0?
0g
0e
0a
0Y
#570000
1$
1&
1)
0'
0%
1!
1E
0C
1B
0A
1@
1=
1X
1e
0c
1a
0_
1Y
0h
0j
0W
0V
0H
0I
0+
0*
#575000
0)
1%
1#
0(
0E
0D
1A
1?
1g
1c
0]
0Y
#580000
0&
1'
0!
1C
0B
0=
0X
0a
1_
#585000
1)
1(
1"
1E
1D
1>
1i
1]
1Y
#590000
0)
0(
1!
0%
0#
0$
0E
0D
0A
0@
0?
1=
1X
0g
0e
0c
0]
0Y
1\
1f
1h
1j
1W
1V
1U
1P
1H
1I
1J
1O
11
1,
1+
1*
#595000
1(
1#
1&
0'
1D
0C
1B
1?
1g
1a
0_
1]
#600000
0(
1'
1)
0!
1$
0"
1E
0D
1C
1@
0>
0=
0X
0i
1e
1_
0]
1Y
#605000
0)
1"
0#
0&
1%
0E
0B
1A
0?
1>
1i
0g
1c
0a
0Y
#610000
0"
1&
0%
0'
1!
0$
0C
1B
0A
0@
0>
1=
1X
0i
0e
0c
1a
0_
0\
0^
0h
0V
0Q
0P
0I
0N
0O
01
00
0+
#615000
1%
1$
1)
1E
1A
1@
1e
1c
1Y
#620000
0&
0!
1#
0B
1?
0=
0X
1g
0a
#625000
0$
0@
0e
#630000
1$
1&
1!
0#
0)
1"
1(
0E
1D
1B
1@
0?
1>
1=
1X
1i
0g
1e
1a
1]
0Y
1\
0`
0f
1h
0j
0W
1V
0U
0R
1P
0H
1I
0J
0M
1O
11
0/
0,
1+
0*
#635000
0$
1#
0(
0%
0D
0A
0@
1?
1g
0e
0c
0]
#640000
1$
0#
1(
1%
0&
0!
1D
0B
1A
1@
0?
0=
0X
0g
1e
1c
0a
1]
#645000
0$
1#
0(
1&
0"
0D
1B
0@
1?
0>
0i
1g
0e
1a
0]
#650000
0&
0%
1!
1'
1C
0B
0A
1=
1X
0c
0a
1_
0\
1b
1S
0P
1L
0O
01
1.
#655000
1&
1%
0'
0#
1(
1"
1)
1E
1D
0C
1B
1A
0?
1>
1i
0g
1c
1a
0_
1]
1Y
#660000
0&
1#
0(
0"
0!
1$
0D
0B
1@
1?
0>
0=
0X
0i
1g
1e
0a
0]
#665000
0#
0$
0%
0A
0@
0?
0g
0e
0c
#670000
1$
1%
1&
1"
1!
1B
1A
1@
1>
1=
1X
1i
1e
1c
1a
1\
0b
0d
0h
0V
0T
0S
1P
0I
0K
0L
1O
11
0.
0-
0+
#675000
0$
0&
0"
1#
1'
1C
0B
0@
1?
0>
0i
1g
0e
0a
1_
#680000
1$
0%
0!
1(
1D
0A
1@
0=
0X
1e
0c
1]
#685000
0$
0(
1&
1"
0'
0D
0C
1B
0@
1>
1i
0e
1a
0_
0]
#690000
1$
1(
0&
0"
1%
1!
0)
0E
1D
0B
1A
1@
0>
1=
1X
0i
1e
1c
0a
1]
0Y
1b
1h
1j
1W
1V
1S
1H
1I
1L
1.
1+
1*
#695000
0$
0(
0%
0#
0D
0A
0@
0?
0g
0e
0c
0]
#700000
1(
1&
1"
0!
1D
1B
1>
0=
0X
1i
1a
1]
#705000
1%
1#
1)
1E
1A
1?
1g
1c
1Y
#710000
0#
0(
0&
0"
1!
1'
0D
1C
0B
0?
0>
1=
1X
0i
0g
0a
1_
0]
1^
1d
1T
1Q
1K
1N
10
1-
#715000
1&
0)
0E
1B
1a
0Y
#720000
0&
1)
1(
1"
0!
0%
1$
1E
1D
0B
0A
1@
1>
0=
0X
1i
1e
0c
0a
1]
1Y
#725000
0)
0(
0$
0'
0E
0D
0C
0@
0e
0_
0]
0Y
#730000
1)
1(
1'
0"
1!
1#
1E
1D
1C
1?
0>
1=
1X
0i
1g
1_
1]
1Y
0\
0^
0b
0d
0h
0V
0T
0S
0Q
0P
0I
0K
0L
0N
0O
01
00
0.
0-
0+
#735000
0)
0'
1"
1$
1%
0E
0C
1A
1@
1>
1i
1e
1c
0_
0Y
#740000
1)
1'
0"
0%
0(
0!
1E
0D
1C
0A
0>
0=
0X
0i
0c
1_
0]
1Y
#745000
0'
1"
1%
0#
1&
0C
1B
1A
0?
1>
1i
0g
1c
1a
0_
#750000
1'
0"
0%
0)
1!
0$
0E
1C
0A
0@
0>
1=
1X
0i
0e
0c
1_
0Y
1\
1b
1d
1f
1U
1T
1S
1P
1J
1K
1L
1O
11
1.
1-
1,
#755000
0'
1#
0C
1?
1g
0_
#760000
1'
0#
1"
0!
0&
1C
0B
0?
1>
0=
0X
1i
0g
0a
1_
#765000
0'
1#
0"
1&
1)
1$
1E
0C
1B
1@
1?
0>
0i
1g
1e
1a
0_
1Y
#770000
1'
0#
0&
0)
0$
1!
1(
0E
1D
1C
0B
0@
0?
1=
1X
0g
0e
0a
1_
1]
0Y
0d
1h
0j
0W
1V
0T
0H
1I
0K
0-
1+
0*
#775000
0'
1#
1&
1%
0C
1B
1A
1?
1g
1c
1a
0_
#780000
1)
0!
0(
1E
0D
0=
0X
0]
1Y
#785000
1(
1'
1D
1C
1_
1]
#790000
0)
1!
0&
0E
0B
1=
1X
0a
0Y
1^
1`
1d
0f
0U
1T
1R
1Q
0J
1K
1M
1N
10
1/
1-
0,
#795000
1"
1>
1i
#800000
0"
0!
0(
1$
0D
1@
0>
0=
0X
0i
1e
0]
#805000
1"
0'
0%
0C
0A
1>
1i
0c
0_
#810000
1'
1%
1!
1(
1)
0#
1E
1D
1C
1A
0?
1=
1X
0g
1c
1_
1]
1Y
0\
0^
0`
0b
0d
1f
1j
1W
1U
0T
0S
0R
0Q
0P
1H
1J
0K
0L
0M
0N
0O
01
00
0/
0.
0-
1,
1*
#815000
0'
0%
0(
0)
1#
1&
0E
0D
0C
1B
0A
1?
1g
0c
1a
0_
0]
0Y
#820000
1'
1%
1)
0#
0&
0!
1E
1C
0B
1A
0?
0=
0X
0g
1c
0a
1_
1Y
#825000
0'
0%
0)
1#
1(
0"
0$
0E
1D
0C
0A
0@
1?
0>
0i
1g
0e
0c
0_
1]
0Y
#830000
1'
1%
0#
1&
1!
1C
1B
1A
0?
1=
1X
0g
1c
1a
1_
1^
0f
0j
0W
0U
1Q
0H
0J
1N
10
0,
0*
#835000
0'
0%
1#
0&
1)
0(
1"
1E
0D
0C
0B
0A
1?
1>
1i
1g
0c
0a
0_
0]
1Y
#840000
0#
0"
0!
1$
1@
0?
0>
0=
0X
0i
0g
1e
#850000
1!
1&
1(
1=
1D
1B
1a
1]
1X
1\
0^
1f
0h
0V
1U
0Q
1P
0I
1J
0N
1O
11
00
1,
0+
#855000
1"
1'
1%
0)
0E
1C
1A
1>
1i
1c
1_
0Y
#860000
0"
0'
0%
0!
0&
0$
0C
0B
0A
0@
0>
0=
0X
0i
0e
0c
0a
0_
#865000
1%
0(
1#
0D
1A
1?
1g
1c
0]
#870000
0%
0#
1"
1'
1!
1$
1C
0A
1@
0?
1>
1=
1X
1i
0g
1e
0c
1_
0\
1d
0f
1h
1V
0U
1T
0P
1I
0J
1K
0O
01
1-
0,
1+
#875000
0'
1(
1&
1)
1E
1D
0C
1B
1a
0_
1]
1Y
#880000
0(
1%
0"
0!
0$
0D
1A
0@
0>
0=
0X
0i
0e
1c
0]
#885000
1"
0&
0)
0E
0B
1>
1i
0a
0Y
#890000
1)
1(
1!
1'
1E
1D
1C
1=
1X
1_
1]
1Y
0h
1j
1W
0V
1H
0I
0+
1*
#895000
0)
0(
0'
1&
0%
1$
1#
0E
0D
0C
1B
0A
1@
1?
1g
1e
0c
1a
0_
0]
0Y
#900000
1'
0&
1%
0!
1C
0B
1A
0=
0X
1c
0a
1_
#905000
0%
1)
0#
0"
1E
0A
0?
0>
0i
0g
0c
1Y
#910000
1#
1"
0'
1&
1!
1(
0$
1D
0C
1B
0@
1?
1>
1=
1X
1i
1g
0e
1a
0_
1]
1\
1`
0d
1f
0j
0W
1U
0T
1R
1P
0H
1J
0K
1M
1O
11
1/
0-
1,
0*
#915000
1$
1%
1A
1@
1e
1c
#920000
0%
0#
0&
0!
0(
0)
0E
0D
0B
0A
0?
0=
0X
0g
0c
0a
0]
0Y
#925000
1#
0$
0"
1'
1C
0@
1?
0>
0i
1g
0e
1_
#930000
1$
0'
1%
1&
1!
1)
1E
0C
1B
1A
1@
1=
1X
1e
1c
1a
0_
1Y
0\
0f
1h
1V
0U
0P
1I
0J
0O
01
0,
1+
#935000
0$
0&
0)
1"
1(
0E
1D
0B
0@
1>
1i
0e
0a
1]
0Y
#940000
1&
1)
0"
0!
0#
1E
1B
0?
0>
0=
0X
0i
0g
1a
1Y
#945000
1$
0(
0%
0D
0A
1@
1e
0c
0]
#950000
0$
1(
1%
0&
1"
1!
1'
1D
1C
0B
1A
0@
1>
1=
1X
1i
0e
1c
0a
1_
1]
1\
0`
1b
1f
0h
0V
1U
1S
0R
1P
0I
1J
1L
0M
1O
11
0/
1.
1,
0+
#955000
0%
0"
0'
0)
1#
0E
0C
0A
1?
0>
0i
1g
0c
0_
0Y
#960000
1)
0#
1$
1&
0!
1E
1B
1@
0?
0=
0X
0g
1e
1a
1Y
#965000
1#
0$
1'
1C
0@
1?
1g
0e
1_
#970000
1$
0'
0&
1!
1%
1"
0(
0D
0C
0B
1A
1@
1>
1=
1X
1i
1e
1c
0a
0_
0]
1^
1`
0f
1h
1V
0U
1R
1Q
1I
0J
1M
1N
10
1/
0,
1+
#975000
0#
0)
0E
0?
0g
0Y
#980000
1#
1)
1&
0!
0%
1E
1B
0A
1?
0=
0X
1g
0c
1a
1Y
#985000
0#
0)
1'
0"
0E
1C
0?
0>
0i
0g
1_
0Y
#990000
1#
1)
0'
1"
0&
1!
1(
1E
1D
0C
0B
1?
1>
1=
1X
1i
1g
0a
0_
1]
1Y
0\
0^
1f
0h
0V
1U
0Q
0P
0I
1J
0N
0O
01
00
1,
0+
#995000
0(
1%
0D
1A
1c
0]
