isd/aula7/simulation/qsim/full_header.msim.vcd
$comment
	File created using the following command:
		vcd file full_header.msim.vcd -direction
$end
$date
	Thu Nov 17 16:54:21 2022
$end
$version
	ModelSim Version 2020.1
$end
$timescale
	1ps
$end

$scope module full_header_vlg_vec_tst $end
$var reg 1 ! a $end
$var reg 1 " b $end
$var reg 1 # ci $end
$var wire 1 $ c0 $end
$var wire 1 % s $end

$scope module i1 $end
$var wire 1 & gnd $end
$var wire 1 ' vcc $end
$var wire 1 ( unknown $end
$var tri1 1 ) devclrn $end
$var tri1 1 * devpor $end
$var tri1 1 + devoe $end
$var wire 1 , s~output_o $end
$var wire 1 - c0~output_o $end
$var wire 1 . a~input_o $end
$var wire 1 / b~input_o $end
$var wire 1 0 ci~input_o $end
$var wire 1 1 inst5~0_combout $end
$var wire 1 2 inst6~0_combout $end
$upscope $end
$upscope $end
$enddefinitions $end
#0
$dumpvars
0!
0"
1#
0$
1%
0&
1'
x(
1)
1*
1+
1,
0-
0.
0/
10
11
02
$end
#10000
1"
1/
12
01
0,
1-
1$
0%
#15000
1!
0#
0"
1.
00
0/
02
11
1,
0-
0$
1%
#20000
1#
1"
10
1/
12
1-
1$
#30000
0!
0#
0.
00
02
0-
0$
#35000
0"
1!
1#
0/
1.
10
12
01
0,
1-
1$
0%
#40000
0!
0.
02
11
1,
0-
0$
1%
#50000
0#
00
01
0,
0%
#55000
1"
1!
1/
1.
12
1-
1$
#60000
0"
0!
0/
0.
02
0-
0$
#65000
1"
1!
1/
1.
12
1-
1$
#70000
1#
10
11
1,
1%
#80000
0"
0#
0/
00
02
0-
0$
#85000
0!
0.
01
0,
0%
#90000
1#
10
11
1,
1%
#95000
1"
1!
0#
1/
1.
00
12
01
0,
1-
1$
0%
#100000
0"
0!
0/
0.
02
0-
0$
#105000
1!
1.
11
1,
1%
#110000
1#
10
12
01
0,
1-
1$
0%
#120000
1"
0#
1/
00
#125000
0!
0.
02
11
1,
0-
0$
1%
#130000
0"
1!
0/
1.
#135000
1"
1/
12
01
0,
1-
1$
0%
#140000
0!
0"
0.
0/
02
0-
0$
#145000
1#
1"
10
1/
12
1-
1$
#150000
1!
1.
11
1,
1%
#155000
0#
00
01
0,
0%
#165000
0"
0!
0/
0.
02
0-
0$
#170000
1#
1"
1!
10
1/
1.
12
11
1,
1-
1$
1%
#175000
0"
0/
01
0,
0%
#180000
0!
1"
0.
1/
#185000
0#
0"
00
0/
02
0-
0$
#190000
1!
1"
1.
1/
12
1-
1$
#195000
1#
0!
10
0.
#210000
0#
1!
00
1.
#215000
0"
1#
0!
0/
10
0.
02
11
1,
0-
0$
1%
#220000
1"
0#
1!
1/
00
1.
12
01
0,
1-
1$
0%
#225000
0"
1#
0/
10
#230000
0!
1"
0.
1/
#235000
0#
1!
0"
00
1.
0/
02
11
1,
0-
0$
1%
#240000
1"
1/
12
01
0,
1-
1$
0%
#245000
1#
10
11
1,
1%
#250000
0!
0.
01
0,
0%
#260000
0#
1!
00
1.
#265000
0!
0.
02
11
1,
0-
0$
1%
#270000
0"
1#
1!
0/
10
1.
12
01
0,
1-
1$
0%
#275000
0#
00
02
11
1,
0-
0$
1%
#280000
0!
1#
0.
10
#285000
1"
1/
12
01
0,
1-
1$
0%
#290000
0#
0"
00
0/
02
0-
0$
#295000
1!
1#
1"
1.
10
1/
12
11
1,
1-
1$
1%
#300000
0!
0"
0.
0/
02
0-
0$
#305000
0#
1"
00
1/
#310000
1#
0"
10
0/
#315000
1!
1.
12
01
0,
1-
1$
0%
#320000
0#
1"
0!
00
1/
0.
02
11
1,
0-
0$
1%
#330000
0"
0/
01
0,
0%
#335000
1#
1!
1"
10
1.
1/
12
11
1,
1-
1$
1%
#340000
0#
0!
0"
00
0.
0/
02
01
0,
0-
0$
0%
#345000
1#
1!
10
1.
12
1-
1$
#350000
0#
00
02
11
1,
0-
0$
1%
#355000
1"
0!
1/
0.
#360000
1#
1!
10
1.
12
1-
1$
#365000
0"
0#
0!
0/
00
0.
02
01
0,
0-
0$
0%
#370000
1!
1.
11
1,
1%
#375000
1"
1#
0!
1/
10
0.
12
01
0,
1-
1$
0%
#380000
0"
1!
0/
1.
#385000
0#
00
02
11
1,
0-
0$
1%
#405000
1"
1/
12
01
0,
1-
1$
0%
#410000
0!
1#
0"
0.
10
0/
02
11
1,
0-
0$
1%
#415000
1!
0#
1"
1.
00
1/
12
01
0,
1-
1$
0%
#420000
1#
10
11
1,
1%
#425000
0!
0"
0#
0.
0/
00
02
01
0,
0-
0$
0%
#430000
1"
1/
11
1,
1%
#435000
1!
1.
12
01
0,
1-
1$
0%
#440000
0!
0.
02
11
1,
0-
0$
1%
#445000
1!
1.
12
01
0,
1-
1$
0%
#450000
1#
0"
0!
10
0/
0.
02
11
1,
0-
0$
1%
#455000
0#
1"
1!
00
1/
1.
12
01
0,
1-
1$
0%
#460000
1#
10
11
1,
1%
#465000
0!
0.
01
0,
0%
#470000
0"
0/
02
11
1,
0-
0$
1%
#475000
0#
1"
00
1/
#480000
1!
0"
1.
0/
#485000
1#
0!
1"
10
0.
1/
12
01
0,
1-
1$
0%
#490000
1!
0"
1.
0/
#495000
0#
0!
1"
00
0.
1/
02
11
1,
0-
0$
1%
#500000
1#
0"
10
0/
#505000
1!
0#
1"
1.
00
1/
12
01
0,
1-
1$
0%
#510000
0!
0.
02
11
1,
0-
0$
1%
#515000
0"
0/
01
0,
0%
#520000
1#
1!
1"
10
1.
1/
12
11
1,
1-
1$
1%
#525000
0!
0.
01
0,
0%
#535000
0#
00
02
11
1,
0-
0$
1%
#545000
1!
1#
1.
10
12
1-
1$
#550000
0!
0#
0.
00
02
0-
0$
#555000
0"
1!
1#
0/
1.
10
12
01
0,
1-
1$
0%
#560000
0!
0#
0.
00
02
0-
0$
#570000
1"
1#
1/
10
12
1-
1$
#575000
1!
0"
1.
0/
#580000
0!
0.
02
11
1,
0-
0$
1%
#585000
0#
1"
00
1/
#590000
1#
10
12
01
0,
1-
1$
0%
#595000
1!
0"
1.
0/
#600000
0#
1"
00
1/
#610000
0!
1#
0"
0.
10
0/
02
11
1,
0-
0$
1%
#615000
1!
1.
12
01
0,
1-
1$
0%
#620000
0#
1"
00
1/
#625000
0!
0.
02
11
1,
0-
0$
1%
#630000
1!
1.
12
01
0,
1-
1$
0%
#645000
0"
0!
0/
0.
02
0-
0$
#650000
1#
1"
10
1/
12
1-
1$
#655000
1!
0#
1.
00
#660000
0"
0!
1#
0/
0.
10
02
11
1,
0-
0$
1%
#665000
1"
0#
1/
00
#670000
0"
0/
01
0,
0%
#675000
1!
1"
1.
1/
12
1-
1$
#680000
0!
0.
02
11
1,
0-
0$
1%
#685000
1#
10
12
01
0,
1-
1$
0%
#690000
0"
0/
02
11
1,
0-
0$
1%
#695000
1!
1"
1.
1/
12
1-
1$
#700000
0#
0"
00
0/
02
0-
0$
#705000
1#
1"
10
1/
12
1-
1$
#710000
0!
0#
0.
00
02
0-
0$
#715000
0"
1!
1#
0/
1.
10
12
01
0,
1-
1$
0%
#720000
1"
0!
0#
1/
0.
00
02
11
1,
0-
0$
1%
#725000
0"
0/
01
0,
0%
#735000
1!
1.
11
1,
1%
#750000
1"
1/
12
01
0,
1-
1$
0%
#755000
0"
0/
02
11
1,
0-
0$
1%
#760000
1#
0!
1"
10
0.
1/
12
01
0,
1-
1$
0%
#770000
0#
1!
00
1.
#775000
0"
0!
0/
0.
02
0-
0$
#780000
1#
10
11
1,
1%
#785000
1"
0#
1/
00
#790000
1!
1.
12
01
0,
1-
1$
0%
#795000
0"
0!
0/
0.
02
0-
0$
#800000
1"
1!
1/
1.
12
1-
1$
#805000
1#
0"
10
0/
#810000
0#
1"
00
1/
#815000
0!
1#
0.
10
#820000
0#
00
02
11
1,
0-
0$
1%
#825000
0"
1!
0/
1.
#830000
1"
0!
1/
0.
#835000
1#
0"
10
0/
#840000
1!
1.
12
01
0,
1-
1$
0%
#845000
0#
0!
00
0.
02
0-
0$
#860000
1#
1!
10
1.
12
1-
1$
#870000
1"
0!
1/
0.
#880000
0#
0"
00
0/
02
0-
0$
#885000
1!
1#
1"
1.
10
1/
12
11
1,
1-
1$
1%
#895000
0#
0"
00
0/
02
0-
0$
#900000
1#
1"
10
1/
12
1-
1$
#905000
0"
0/
01
0,
0%
#910000
0!
0#
1"
0.
00
1/
02
11
1,
0-
0$
1%
#915000
0"
0/
01
0,
0%
#920000
1!
1#
1"
1.
10
1/
12
11
1,
1-
1$
1%
#925000
0"
0/
01
0,
0%
#930000
1"
1/
11
1,
1%
#935000
0!
0"
0.
0/
02
0-
0$
#940000
1!
1.
12
01
0,
1-
1$
0%
#945000
0!
0.
02
11
1,
0-
0$
1%
#950000
0#
1"
1!
00
1/
1.
12
01
0,
1-
1$
0%
#955000
1#
0!
10
0.
#960000
0"
1!
0/
1.
#965000
1"
0!
1/
0.
#970000
0#
0"
00
0/
02
0-
0$
#975000
1#
1"
10
1/
12
1-
1$
#980000
0#
00
02
11
1,
0-
0$
1%
#985000
0"
1#
0/
10
#990000
1"
1/
12
01
0,
1-
1$
0%
#995000
1!
1.
11
1,
1%
