LSD/aula2/MUX/simulation/qsim/Mux2_1Demo.msim.vcd
$comment
	File created using the following command:
		vcd file Mux2_1Demo.msim.vcd -direction
$end
$date
	Thu Mar 02 10:17:09 2023
$end
$version
	ModelSim Version 2020.1
$end
$timescale
	1ps
$end

$scope module mux2_1demo_vhd_vec_tst $end
$var wire 1 ! input0 $end
$var wire 1 " input1 $end
$var wire 1 # muxOut $end
$var wire 1 $ sel $end

$scope module i1 $end
$var wire 1 % gnd $end
$var wire 1 & vcc $end
$var wire 1 ' unknown $end
$var wire 1 ( devoe $end
$var wire 1 ) devclrn $end
$var wire 1 * devpor $end
$var wire 1 + ww_devoe $end
$var wire 1 , ww_devclrn $end
$var wire 1 - ww_devpor $end
$var wire 1 . ww_sel $end
$var wire 1 / ww_input0 $end
$var wire 1 0 ww_input1 $end
$var wire 1 1 ww_muxOut $end
$var wire 1 2 \muxOut~output_o\ $end
$var wire 1 3 \input1~input_o\ $end
$var wire 1 4 \input0~input_o\ $end
$var wire 1 5 \sel~input_o\ $end
$var wire 1 6 \muxOut~0_combout\ $end
$upscope $end
$upscope $end
$enddefinitions $end
#0
$dumpvars
1!
0"
1#
0$
0%
1&
x'
1(
1)
1*
1+
1,
1-
0.
1/
00
11
12
03
14
05
16
$end
#5000
1$
1.
15
06
02
01
0#
#10000
0$
0!
0.
0/
04
05
#15000
1$
1!
1"
1.
1/
10
13
14
15
16
12
11
1#
#25000
0$
0!
0.
0/
04
05
06
02
01
0#
#30000
1!
0"
1/
00
03
14
16
12
11
1#
#35000
1$
1.
15
06
02
01
0#
#40000
0!
1"
0/
10
13
04
16
12
11
1#
#45000
0"
0$
00
0.
05
03
06
02
01
0#
#50000
1"
10
13
#55000
0"
1$
00
1.
15
03
#60000
1"
0$
1!
10
0.
1/
14
05
13
16
12
11
1#
#65000
0"
1$
0!
00
1.
0/
04
15
03
06
02
01
0#
#70000
1"
10
13
16
12
11
1#
#75000
0"
1!
00
1/
14
03
06
02
01
0#
#80000
1"
10
13
16
12
11
1#
#85000
0!
0/
04
#90000
0$
0.
05
06
02
01
0#
#95000
1!
1/
14
16
12
11
1#
#105000
1$
1.
15
#110000
0$
0!
0.
0/
04
05
06
02
01
0#
#120000
1!
0"
1/
00
03
14
16
12
11
1#
#135000
0!
0/
04
06
02
01
0#
#140000
1!
1$
1/
1.
15
14
#145000
0$
1"
0.
10
13
05
16
12
11
1#
#155000
1$
0!
1.
0/
04
15
#165000
0$
0.
05
06
02
01
0#
#170000
1!
1/
14
16
12
11
1#
#175000
0"
00
03
#180000
0!
1$
0/
1.
15
04
06
02
01
0#
#195000
1"
10
13
16
12
11
1#
#200000
1!
0$
1/
0.
05
14
#205000
0!
1$
0"
0/
1.
00
03
15
04
06
02
01
0#
#215000
1"
10
13
16
12
11
1#
#220000
0"
0$
00
0.
05
03
06
02
01
0#
#230000
1!
1/
14
16
12
11
1#
#235000
1$
1.
15
06
02
01
0#
#240000
0!
1"
0/
10
13
04
16
12
11
1#
#245000
1!
1/
14
#250000
0!
0"
0$
0/
00
0.
05
03
04
06
02
01
0#
#255000
1$
1.
15
#260000
0$
1!
1"
0.
1/
10
13
14
05
16
12
11
1#
#265000
1$
0!
0"
1.
0/
00
03
04
15
06
02
01
0#
#270000
0$
1!
1"
0.
1/
10
13
14
05
16
12
11
1#
#275000
0"
00
03
#280000
0!
0/
04
06
02
01
0#
#285000
1$
1.
15
#290000
0$
1"
0.
10
13
05
#295000
0"
00
03
#305000
1"
1$
10
1.
15
13
16
12
11
1#
#310000
0"
0$
1!
00
0.
1/
14
05
03
#320000
1"
10
13
#325000
0"
1$
0!
00
1.
0/
04
15
03
06
02
01
0#
#330000
0$
0.
05
#335000
1$
1.
15
#340000
0$
1"
0.
10
13
05
#345000
0"
00
03
#350000
1"
1$
1!
10
1.
1/
14
15
13
16
12
11
1#
#355000
0!
0/
04
#360000
0"
0$
00
0.
05
03
06
02
01
0#
#365000
1$
1!
1.
1/
14
15
#370000
0$
0.
05
16
12
11
1#
#375000
0!
1"
0/
10
13
04
06
02
01
0#
#380000
1!
0"
1/
00
03
14
16
12
11
1#
#385000
1$
1.
15
06
02
01
0#
#390000
0$
0.
05
16
12
11
1#
#395000
1"
10
13
#400000
1$
0!
1.
0/
04
15
#405000
0"
00
03
06
02
01
0#
#410000
1"
1!
10
1/
14
13
16
12
11
1#
#415000
0"
00
03
06
02
01
0#
#420000
1"
0!
10
0/
04
13
16
12
11
1#
#430000
0"
00
03
06
02
01
0#
#435000
1"
10
13
16
12
11
1#
#440000
0"
00
03
06
02
01
0#
#445000
1"
10
13
16
12
11
1#
#450000
1!
1/
14
#455000
0!
0$
0/
0.
05
04
06
02
01
0#
#460000
1$
0"
1.
00
03
15
#465000
0$
1!
0.
1/
14
05
16
12
11
1#
#470000
1$
0!
1"
1.
0/
10
13
04
15
#475000
1!
0"
1/
00
03
14
06
02
01
0#
#480000
0!
0/
04
#490000
1!
0$
1/
0.
05
14
16
12
11
1#
#495000
0!
1"
0/
10
13
04
06
02
01
0#
#500000
1!
0"
1/
00
03
14
16
12
11
1#
#505000
1"
1$
10
1.
15
13
#510000
0"
0$
0!
00
0.
0/
04
05
03
06
02
01
0#
#515000
1!
1/
14
16
12
11
1#
#520000
1"
1$
10
1.
15
13
#525000
0!
0/
04
#530000
0"
00
03
06
02
01
0#
#535000
0$
0.
05
#540000
1$
1!
1.
1/
14
15
#545000
1"
10
13
16
12
11
1#
#550000
0"
00
03
06
02
01
0#
#555000
0$
0.
05
16
12
11
1#
#560000
1$
1.
15
06
02
01
0#
#565000
0$
1"
0.
10
13
05
16
12
11
1#
#570000
0"
0!
00
0/
04
03
06
02
01
0#
#580000
1$
1.
15
#585000
1"
1!
10
1/
14
13
16
12
11
1#
#590000
0"
00
03
06
02
01
0#
#600000
1"
0!
10
0/
04
13
16
12
11
1#
#605000
0"
0$
00
0.
05
03
06
02
01
0#
#610000
1!
1/
14
16
12
11
1#
#615000
0!
0/
04
06
02
01
0#
#620000
1$
1.
15
#625000
0$
1!
1"
0.
1/
10
13
14
05
16
12
11
1#
#630000
1$
0"
1.
00
03
15
06
02
01
0#
#635000
1"
0!
10
0/
04
13
16
12
11
1#
#640000
1!
1/
14
#645000
0!
0"
0/
00
03
04
06
02
01
0#
#650000
1!
1"
0$
1/
10
0.
05
13
14
16
12
11
1#
#655000
0!
0/
04
06
02
01
0#
#660000
0"
00
03
#665000
1!
1$
1/
1.
15
14
#675000
0$
0.
05
16
12
11
1#
#680000
1$
1.
15
06
02
01
0#
#690000
0$
0.
05
16
12
11
1#
#695000
1$
1"
1.
10
13
15
#705000
0$
0.
05
#710000
1$
0"
1.
00
03
15
06
02
01
0#
#715000
1"
10
13
16
12
11
1#
#720000
0"
0$
0!
00
0.
0/
04
05
03
06
02
01
0#
#725000
1"
1!
10
1/
14
13
16
12
11
1#
#730000
0!
1$
0/
1.
15
04
#735000
1!
1/
14
#740000
0$
0"
0.
00
03
05
#745000
1"
0!
10
0/
04
13
06
02
01
0#
#750000
1!
1$
1/
1.
15
14
16
12
11
1#
#755000
0$
0.
05
#760000
1$
0!
1.
0/
04
15
#765000
0$
1!
0.
1/
14
05
#770000
1$
0!
0"
1.
0/
00
03
04
15
06
02
01
0#
#775000
1"
10
13
16
12
11
1#
#780000
0$
0.
05
06
02
01
0#
#785000
1$
1!
1.
1/
14
15
16
12
11
1#
#795000
0!
0/
04
#800000
0"
00
03
06
02
01
0#
#805000
1"
1!
10
1/
14
13
16
12
11
1#
#810000
0"
00
03
06
02
01
0#
#815000
0!
0$
0/
0.
05
04
#820000
1$
1"
1.
10
13
15
16
12
11
1#
#825000
0$
1!
0.
1/
14
05
#830000
0"
00
03
#835000
1"
10
13
#840000
0!
0/
04
06
02
01
0#
#845000
1!
0"
1$
1/
00
1.
15
03
14
#850000
1"
10
13
16
12
11
1#
#855000
0"
0$
00
0.
05
03
#860000
1"
1$
10
1.
15
13
#865000
0!
0/
04
#875000
0"
0$
00
0.
05
03
06
02
01
0#
#880000
1"
1$
10
1.
15
13
16
12
11
1#
#885000
0"
1!
00
1/
14
03
06
02
01
0#
#890000
1"
0$
10
0.
05
13
16
12
11
1#
#900000
1$
1.
15
#905000
0$
0"
0.
00
03
05
#910000
1"
10
13
#915000
0"
0!
00
0/
04
03
06
02
01
0#
#925000
1"
1!
1$
10
1/
1.
15
14
13
16
12
11
1#
#930000
0"
0$
00
0.
05
03
#935000
0!
0/
04
06
02
01
0#
#940000
1"
10
13
#945000
1$
1.
15
16
12
11
1#
#955000
0$
0"
1!
0.
00
1/
14
03
05
#960000
1$
1"
1.
10
13
15
#965000
0"
00
03
06
02
01
0#
#970000
1"
0$
0!
10
0.
0/
04
05
13
#975000
1$
1.
15
16
12
11
1#
#980000
1!
1/
14
#985000
0!
0/
04
#990000
1!
0$
0"
1/
0.
00
03
05
14
#995000
1"
10
13
